Proyecto_1/Modulo_cache/Test_Modules/NAND/nand.vcd
$date
     Jul 06, 2020       13:06:27
$end

$version
 SystemC 2.3.2-Accellera --- Jun 15 2020 10:33:26
$end

$timescale
     1 ns
$end

$scope module SystemC $end
$var wire    1  aaaaa  A       $end
$var wire    1  aaaab  B       $end
$var wire    1  aaaac  F       $end
$var wire    1  aaaad  clk       $end
$upscope $end
$enddefinitions  $end

$comment
All initial values are dumped below at time 0 sec = 0 timescale units.
$end

$dumpvars
0aaaaa
0aaaab
1aaaac
1aaaad
$end

#5
0aaaad

#10
1aaaad

#15
0aaaad

#20
1aaaab
1aaaad

#25
0aaaad

#30
1aaaad

#31
1aaaaa
0aaaab

#35
0aaaad

#40
1aaaad

#45
0aaaad

#50
1aaaad

#51
1aaaab

#55
0aaaad

#60
0aaaac
1aaaad

#65
0aaaad

#70
1aaaad

#71
0aaaaa
0aaaab

#75
0aaaad

#80
1aaaac
1aaaad

#85
0aaaad

#90
1aaaad

#91
1aaaab

#95
0aaaad

#100
1aaaad

#105
0aaaad

#110
1aaaad

#111
1aaaaa
0aaaab

#115
0aaaad

#120
1aaaad

#125
0aaaad

#130
1aaaad

#131
1aaaab

#135
0aaaad

#140
0aaaac
1aaaad

