Proyecto_1/CPU/cpu.vcd
$date
     Jul 26, 2020       19:31:54
$end

$version
 SystemC 2.3.3-Accellera --- Jul 25 2020 18:50:59
$end

$timescale
     1 ns
$end

$scope module SystemC $end
$var wire   32  aaaaa  Data [31:0]  $end
$var wire   32  aaaab  Addr [31:0]  $end
$upscope $end
$enddefinitions  $end

$comment
All initial values are dumped below at time 0 sec = 0 timescale units.
$end

$dumpvars
b0 aaaaa
b0 aaaab
$end

#1
b1 aaaaa
b1000011110000000000000000100000 aaaab

#2
b10 aaaaa
b1000011110000000000000000100100 aaaab

#3
b11 aaaaa
b1000011110000000000000000101000 aaaab

#4
b100 aaaaa
b1000011110000000000000000101100 aaaab

#5
b101 aaaaa
b1000011110000000000000000110000 aaaab

#6
b110 aaaaa
b1000011110000000000000000111000 aaaab

#7
b111 aaaaa
b1000011110000000000000001000000 aaaab

#8
b1000 aaaaa
b1000011110000000000000001001000 aaaab

#9
b1001 aaaaa
b1000011110000000000000001010000 aaaab

#10
b10 aaaaa
b1000011110000000000000001011000 aaaab

#11
b1 aaaaa
b1000011110000000000000001100000 aaaab

#12
b10101011110011011010101111001101 aaaaa
b1000011110000000000000000010000 aaaab

#13
b1000011110000000000000000010100 aaaab

#14
b1000011110000000000000000011000 aaaab

#15
b1000011110000000000000000011100 aaaab

