Proyecto_1/Modulo_cache/CACHE/lt/cache.vcd
$date
     Jul 07, 2020       11:40:51
$end

$version
 SystemC 2.3.2-Accellera --- Jun 15 2020 10:33:26
$end

$timescale
     1 ns
$end

$scope module SystemC $end
$var wire    1  aaaaa  flag       $end
$var wire   32  aaaab  data [31:0]  $end
$var wire   32  aaaac  address [31:0]  $end
$var wire    1  aaaad  Fun       $end
$var wire   32  aaaae  0_MemAdd [31:0]  $end
$var wire   32  aaaaf  0_MemDat [31:0]  $end
$var wire   32  aaaag  1_MemAdd [31:0]  $end
$var wire   32  aaaah  1_MemDat [31:0]  $end
$var wire   32  aaaai  2_MemAdd [31:0]  $end
$var wire   32  aaaaj  2_MemDat [31:0]  $end
$var wire    1  aaaak  zclk       $end
$upscope $end
$enddefinitions  $end

$comment
All initial values are dumped below at time 0 sec = 0 timescale units.
$end

$dumpvars
0aaaaa
b110011 aaaab
b11 aaaac
0aaaad
b0 aaaae
b1000000000010 aaaaf
b0 aaaag
b0 aaaah
b0 aaaai
b0 aaaaj
1aaaak
$end

#4
b11 aaaae
b110011 aaaaf

#5
0aaaak

#10
1aaaak

#15
0aaaak

#20
b100010 aaaab
b10 aaaac
1aaaak

#24
b10 aaaag
b100010 aaaah

#25
0aaaak

#30
1aaaak

#35
0aaaak

#40
b1100110 aaaab
b101 aaaac
1aaaak

#44
b101 aaaai
b1100110 aaaaj

#45
0aaaak

#50
1aaaak

#55
0aaaak

#60
b100010 aaaab
b10 aaaac
1aaaad
1aaaak

#65
0aaaak

#70
1aaaak

#75
0aaaak

#80
1aaaaa
b0 aaaab
b1 aaaac
1aaaak

#85
0aaaak

#90
1aaaak

#95
0aaaak

#100
b10001 aaaab
0aaaad
1aaaak

#104
b1 aaaae
b10001 aaaaf

#105
0aaaak

#110
1aaaak

#115
0aaaak

#120
0aaaaa
b1100110 aaaab
b101 aaaac
1aaaad
1aaaak

#125
0aaaak

#130
1aaaak

#135
0aaaak

#140
b11111111 aaaab
b1011101 aaaac
0aaaad
1aaaak

#144
b1011101 aaaag
b11111111 aaaah

#145
0aaaak

#150
1aaaak

#155
0aaaak

#160
1aaaaa
b0 aaaab
b10 aaaac
1aaaad
1aaaak

