Proyecto_3/SISTEMA_COMPLETO/cpu.vcd
$date
     Aug 11, 2020       11:32:55
$end

$version
 SystemC 2.3.3-Accellera --- Aug  7 2020 19:03:51
$end

$timescale
     1 ns
$end

$scope module SystemC $end
$var real    1  aaaaa  param_1       $end
$var real    1  aaaab  param_2       $end
$var real    1  aaaac  volt       $end
$var real    1  aaaad  current       $end
$upscope $end
$enddefinitions  $end

$comment
All initial values are dumped below at time 0 sec = 0 timescale units.
$end

$dumpvars
r0 aaaaa
r0 aaaab
r0 aaaac
r0 aaaad
$end

#1440
r0.5499997138977051 aaaaa

#1668
r-12.99843311309814 aaaab

#1950
r0.5500059127807617 aaaaa

#2138
r-12.99823665618896 aaaab

#2420
r0.5500092506408691 aaaaa

#2608
r-12.99803924560547 aaaab

#2890
r0.5500125885009766 aaaaa

#3078
r-12.99783992767334 aaaab

#3360
r0.550015926361084 aaaaa

#3548
r-12.99743843078613 aaaab

#3830
r0.550023078918457 aaaaa

#4018
r-12.99723625183105 aaaab

#4300
r0.5500264167785645 aaaaa

#4488
r-12.99703216552734 aaaab

#4770
r0.5500297546386719 aaaaa

#4958
r-12.99682712554932 aaaab

#5240
r0.5500330924987793 aaaaa

#5428
r-12.996413230896 aaaab

#5710
r0.5500402450561523 aaaaa

#5898
r-12.9962043762207 aaaab

#6180
r0.5500435829162598 aaaaa

#6368
r-12.99599456787109 aaaab

#6650
r0.5500473976135254 aaaaa

#6838
r-12.99578380584717 aaaab

#7120
r0.5500507354736328 aaaaa

#7308
r-12.99535751342773 aaaab

#7590
r0.5500583648681641 aaaaa

#7778
r-12.99514293670654 aaaab

#8060
r0.5500617027282715 aaaaa

#8248
r-12.99492645263672 aaaab

#8530
r0.5500655174255371 aaaaa

#8718
r-12.99470901489258 aaaab

#9000
r0.5500693321228027 aaaaa

#9188
r-12.99427127838135 aaaab

#9470
r0.550076961517334 aaaaa

#9658
r-12.99405002593994 aaaab

#9940
r0.5500802993774414 aaaaa

#10128
r-12.99382781982422 aaaab

#10410
r0.550084114074707 aaaaa

#10598
r-12.99360466003418 aaaab

#10880
r0.5500879287719727 aaaaa

#11068
r-12.99315452575684 aaaab

#11350
r0.5500960350036621 aaaaa

#11538
r-12.99292755126953 aaaab

#11820
r0.5500998497009277 aaaaa

#12008
r-12.99269962310791 aaaab

#12290
r0.5501036643981934 aaaaa

#12478
r-12.99246978759766 aaaab

#12760
r0.550107479095459 aaaaa

#12948
r-12.9920072555542 aaaab

#13230
r0.5501155853271484 aaaaa

#13418
r-12.991774559021 aaaab

#13700
r0.5501194000244141 aaaaa

#13888
r-12.99153995513916 aaaab

#14170
r0.5501236915588379 aaaaa

#14358
r-12.99130439758301 aaaab

#14640
r0.5501275062561035 aaaaa

#14828
r-12.99083042144775 aaaab

#15110
r0.550135612487793 aaaaa

#15298
r-12.99059104919434 aaaab

#15580
r0.5501399040222168 aaaaa

#15768
r-12.9903507232666 aaaab

#16050
r0.5501441955566406 aaaaa

#16238
r-12.99010944366455 aaaab

#16520
r0.5501484870910645 aaaaa

#16708
r-12.9896240234375 aaaab

#16990
r0.5501565933227539 aaaaa

#17178
r-12.98937892913818 aaaab

#17460
r0.5501608848571777 aaaaa

#17648
r-12.98913288116455 aaaab

#17930
r0.5501651763916016 aaaaa

#18118
r-12.9888858795166 aaaab

#18400
r0.5501694679260254 aaaaa

#18588
r-12.98838806152344 aaaab

#18870
r0.550178050994873 aaaaa

#19058
r-12.98813724517822 aaaab

#19340
r0.5501823425292969 aaaaa

#19528
r-12.98788547515869 aaaab

#19810
r0.5501866340637207 aaaaa

#19998
r-12.98763275146484 aaaab

#20280
r0.5501914024353027 aaaaa

#20468
r-12.98712348937988 aaaab

#20750
r0.5501999855041504 aaaaa

#20938
r-12.98686695098877 aaaab

#21220
r0.5502047538757324 aaaaa

#21408
r-12.98660945892334 aaaab

#21690
r0.5502090454101562 aaaaa

#21878
r-12.98635101318359 aaaab

#22160
r0.5502133369445801 aaaaa

#22348
r-12.98583126068115 aaaab

#22630
r0.5502223968505859 aaaaa

#22818
r-12.98556900024414 aaaab

#23100
r0.550227165222168 aaaaa

#23288
r-12.98530578613281 aaaab

#23570
r0.55023193359375 aaaaa

#23758
r-12.98504161834717 aaaab

#24040
r0.5502362251281738 aaaaa

#24228
r-12.98451042175293 aaaab

#24510
r0.5502457618713379 aaaaa

#24698
r-12.98424339294434 aaaab

#24980
r0.5502505302429199 aaaaa

#25168
r-12.98397445678711 aaaab

#25450
r0.550255298614502 aaaaa

#25638
r-12.98370456695557 aaaab

#25920
r0.550260066986084 aaaaa

#26108
r-12.98316192626953 aaaab

#26390
r0.550269603729248 aaaaa

#26578
r-12.98288917541504 aaaab

#26860
r0.5502743721008301 aaaaa

#27048
r-12.98261547088623 aaaab

#27330
r0.5502791404724121 aaaaa

#27518
r-12.98234081268311 aaaab

#27800
r0.5502839088439941 aaaaa

#27988
r-12.98178863525391 aaaab

#28270
r0.5502934455871582 aaaaa

#28458
r-12.98151016235352 aaaab

#28740
r0.5502986907958984 aaaaa

#28928
r-12.98123073577881 aaaab

#29210
r0.5503034591674805 aaaaa

#29398
r-12.98095035552979 aaaab

#29680
r0.5503082275390625 aaaaa

#29868
r-12.98038673400879 aaaab

#30150
r0.5503182411193848 aaaaa

#30338
r-12.98010349273682 aaaab

#30620
r0.550323486328125 aaaaa

#30808
r-12.97981929779053 aaaab

#31090
r0.550328254699707 aaaaa

#31278
r-12.97953414916992 aaaab

#31560
r0.5503334999084473 aaaaa

#31748
r-12.97896099090576 aaaab

#32030
r0.5503435134887695 aaaaa

#32218
r-12.97867298126221 aaaab

#32500
r0.5503487586975098 aaaaa

#32688
r-12.97838401794434 aaaab

#32970
r0.55035400390625 aaaaa

#33158
r-12.97809410095215 aaaab

#33440
r0.5503592491149902 aaaaa

#33628
r-12.97751140594482 aaaab

#33910
r0.5503692626953125 aaaaa

#34098
r-12.97721862792969 aaaab

#34380
r0.5503745079040527 aaaaa

#34568
r-12.97692489624023 aaaab

#34850
r0.550379753112793 aaaaa

#35038
r-12.97663021087646 aaaab

#35320
r0.5503849983215332 aaaaa

#35508
r-12.97603797912598 aaaab

#35790
r0.5503959655761719 aaaaa

#35978
r-12.97574043273926 aaaab

#36260
r0.5504012107849121 aaaaa

#36448
r-12.97544193267822 aaaab

#36730
r0.5504064559936523 aaaaa

#36918
r-12.97514247894287 aaaab

#37200
r0.5504117012023926 aaaaa

#37388
r-12.97454071044922 aaaab

#37670
r0.5504226684570312 aaaaa

#37858
r-12.97423839569092 aaaab

#38140
r0.5504279136657715 aaaaa

#38328
r-12.9739351272583 aaaab

#38610
r0.5504336357116699 aaaaa

#38798
r-12.97363090515137 aaaab

#39080
r0.5504388809204102 aaaaa

#39268
r-12.97301959991455 aaaab

#39550
r0.5504498481750488 aaaaa

#39738
r-12.97271251678467 aaaab

#40020
r0.5504555702209473 aaaaa

#40208
r-12.97240447998047 aaaab

#40490
r0.5504608154296875 aaaaa

#40678
r-12.97209548950195 aaaab

#40960
r0.5504665374755859 aaaaa

#41148
r-12.97147560119629 aaaab

#41430
r0.5504779815673828 aaaaa

#41618
r-12.97116470336914 aaaab

#41900
r0.550483226776123 aaaaa

#42088
r-12.97085285186768 aaaab

#42370
r0.5504889488220215 aaaaa

#42558
r-12.97054004669189 aaaab

#42840
r0.5504946708679199 aaaaa

#43028
r-12.96991157531738 aaaab

#43310
r0.5505061149597168 aaaaa

#43498
r-12.96959590911865 aaaab

#43780
r0.5505118370056152 aaaaa

#43968
r-12.96928024291992 aaaab

#44250
r0.5505175590515137 aaaaa

#44438
r-12.96896362304688 aaaab

#44720
r0.5505232810974121 aaaaa

#44908
r-12.96832752227783 aaaab

#45190
r0.550534725189209 aaaaa

#45378
r-12.96800804138184 aaaab

#45660
r0.5505404472351074 aaaaa

#45848
r-12.96768760681152 aaaab

#46130
r0.5505461692810059 aaaaa

#46318
r-12.96736717224121 aaaab

#46600
r0.5505518913269043 aaaaa

#46788
r-12.96672344207764 aaaab

#47070
r0.5505638122558594 aaaaa

#47258
r-12.96640014648438 aaaab

#47540
r0.5505695343017578 aaaaa

#47728
r-12.96607685089111 aaaab

#48010
r0.5505757331848145 aaaaa

#48198
r-12.96575260162354 aaaab

#48480
r0.5505814552307129 aaaaa

#48668
r-12.96510124206543 aaaab

#48950
r0.550593376159668 aaaaa

#49138
r-12.96477508544922 aaaab

#49420
r0.5505990982055664 aaaaa

#49608
r-12.96444797515869 aaaab

#49890
r0.550605297088623 aaaaa

#50078
r-12.96411991119385 aaaab

#50360
r0.5506110191345215 aaaaa

#50548
r-12.96346282958984 aaaab

#50830
r0.5506234169006348 aaaaa

#51018
r-12.96313285827637 aaaab

#51300
r0.5506291389465332 aaaaa

#51488
r-12.96280288696289 aaaab

#51770
r0.5506353378295898 aaaaa

#51958
r-12.9624719619751 aaaab

#52240
r0.5506415367126465 aaaaa

#52428
r-12.96180820465088 aaaab

#52710
r0.5506534576416016 aaaaa

#52898
r-12.96147537231445 aaaab

#53180
r0.5506596565246582 aaaaa

#53368
r-12.96114158630371 aaaab

#53650
r0.5506658554077148 aaaaa

#53838
r-12.96080780029297 aaaab

#54120
r0.5506720542907715 aaaaa

#54308
r-12.96013832092285 aaaab

#54590
r0.5506844520568848 aaaaa

#54778
r-12.95980262756348 aaaab

#55060
r0.5506906509399414 aaaaa

#55248
r-12.95946598052979 aaaab

#55530
r0.550696849822998 aaaaa

#55718
r-12.95912933349609 aaaab

#56000
r0.5507030487060547 aaaaa

#56188
r-12.95845413208008 aaaab

#56470
r0.550715446472168 aaaaa

#56658
r-12.95811557769775 aaaab

#56940
r0.5507216453552246 aaaaa

#57128
r-12.95777702331543 aaaab

#57410
r0.5507278442382812 aaaaa

#57598
r-12.95743751525879 aaaab

#57880
r0.5507340431213379 aaaaa

#58068
r-12.95675754547119 aaaab

#58350
r0.5507469177246094 aaaaa

#58538
r-12.95641708374023 aaaab

#58820
r0.550753116607666 aaaaa

#59008
r-12.95607566833496 aaaab

#59290
r0.5507593154907227 aaaaa

#59478
r-12.95573425292969 aaaab

#59760
r0.5507655143737793 aaaaa

#59948
r-12.95504951477051 aaaab

#60230
r0.5507783889770508 aaaaa

#60418
r-12.9547061920166 aaaab

#60700
r0.5507845878601074 aaaaa

#60888
r-12.9543628692627 aaaab

#61170
r0.5507912635803223 aaaaa

#61358
r-12.95401859283447 aaaab

#61640
r0.5507974624633789 aaaaa

#61828
r-12.95332908630371 aaaab

#62110
r0.5508103370666504 aaaaa

#62298
r-12.95298385620117 aaaab

#62580
r0.5508170127868652 aaaaa

#62768
r-12.95263862609863 aaaab

#63050
r0.5508232116699219 aaaaa

#63238
r-12.95229244232178 aaaab

#63520
r0.5508298873901367 aaaaa

#63708
r-12.95160007476807 aaaab

#63990
r0.5508427619934082 aaaaa

#64178
r-12.95125293731689 aaaab

#64460
r0.5508489608764648 aaaaa

#64648
r-12.95090579986572 aaaab

#64930
r0.5508556365966797 aaaaa

#65118
r-12.95055866241455 aaaab

#65400
r0.5508623123168945 aaaaa

#65588
r-12.94986248016357 aaaab

#65870
r0.550875186920166 aaaaa

#66058
r-12.94951438903809 aaaab

#66340
r0.5508813858032227 aaaaa

#66528
r-12.94916534423828 aaaab

#66810
r0.5508880615234375 aaaaa

#66998
r-12.94881629943848 aaaab

#67280
r0.5508947372436523 aaaaa

#67468
r-12.94811820983887 aaaab

#67750
r0.5509076118469238 aaaaa

#67938
r-12.94776821136475 aaaab

#68220
r0.5509142875671387 aaaaa

#68408
r-12.94741821289062 aaaab

#68690
r0.5509209632873535 aaaaa

#68878
r-12.9470682144165 aaaab

#69160
r0.5509276390075684 aaaaa

#69348
r-12.94636726379395 aaaab

#69630
r0.5509405136108398 aaaaa

#69818
r-12.94601631164551 aaaab

#70100
r0.5509471893310547 aaaaa

#70288
r-12.94566535949707 aaaab

#70570
r0.5509538650512695 aaaaa

#70758
r-12.94531440734863 aaaab

#71040
r0.5509605407714844 aaaaa

#71228
r-12.94461250305176 aaaab

#71510
r0.5509738922119141 aaaaa

#71698
r-12.944260597229 aaaab

#71980
r0.5509805679321289 aaaaa

#72168
r-12.94390869140625 aaaab

#72450
r0.5509872436523438 aaaaa

#72638
r-12.9435567855835 aaaab

#72920
r0.5509939193725586 aaaaa

#73108
r-12.94285297393799 aaaab

#73390
r0.5510072708129883 aaaaa

#73578
r-12.94250106811523 aaaab

#73860
r0.5510139465332031 aaaaa

#74048
r-12.94214916229248 aaaab

#74330
r0.551020622253418 aaaaa

#74518
r-12.94179725646973 aaaab

#74800
r0.5510272979736328 aaaaa

#74988
r-12.94109344482422 aaaab

#75270
r0.5510406494140625 aaaaa

#75458
r-12.94074153900146 aaaab

#75740
r0.5510473251342773 aaaaa

#75928
r-12.94038963317871 aaaab

#76210
r0.5510540008544922 aaaaa

#76398
r-12.94003772735596 aaaab

#76680
r0.551060676574707 aaaaa

#76868
r-12.93933391571045 aaaab

#77150
r0.5510740280151367 aaaaa

#77338
r-12.9389820098877 aaaab

#77620
r0.5510807037353516 aaaaa

#77808
r-12.93863010406494 aaaab

#78090
r0.5510873794555664 aaaaa

#78278
r-12.93827819824219 aaaab

#78560
r0.5510940551757812 aaaaa

#78748
r-12.93757438659668 aaaab

#79030
r0.5511074066162109 aaaaa

#79218
r-12.93722248077393 aaaab

#79500
r0.5511140823364258 aaaaa

#79688
r-12.93687057495117 aaaab

#79970
r0.5511207580566406 aaaaa

#80158
r-12.93651866912842 aaaab

#80440
r0.5511274337768555 aaaaa

#80628
r-12.93581485748291 aaaab

#80910
r0.5511412620544434 aaaaa

#81098
r-12.93546295166016 aaaab

#81380
r0.5511479377746582 aaaaa

#81568
r-12.93511199951172 aaaab

#81850
r0.551154613494873 aaaaa

#82038
r-12.93476104736328 aaaab

#82320
r0.5511612892150879 aaaaa

#82508
r-12.93405914306641 aaaab

#82790
r0.5511746406555176 aaaaa

#82978
r-12.93370819091797 aaaab

#83260
r0.5511813163757324 aaaaa

#83448
r-12.93335819244385 aaaab

#83730
r0.5511879920959473 aaaaa

#83918
r-12.93300819396973 aaaab

#84200
r0.5511951446533203 aaaaa

#84388
r-12.93230819702148 aaaab

#84670
r0.55120849609375 aaaaa

#84858
r-12.93195819854736 aaaab

#85140
r0.5512151718139648 aaaaa

#85328
r-12.93160915374756 aaaab

#85610
r0.5512218475341797 aaaaa

#85798
r-12.93126010894775 aaaab

#86080
r0.5512285232543945 aaaaa

#86268
r-12.93056297302246 aaaab

#86550
r0.5512418746948242 aaaaa

#86738
r-12.93021488189697 aaaab

#87020
r0.5512490272521973 aaaaa

#87208
r-12.92986679077148 aaaab

#87490
r0.5512557029724121 aaaaa

#87678
r-12.929518699646 aaaab

#87960
r0.551262378692627 aaaaa

#88148
r-12.92882442474365 aaaab

#88430
r0.5512757301330566 aaaaa

#88618
r-12.9284782409668 aaaab

#88900
r0.5512824058532715 aaaaa

#89088
r-12.92813205718994 aaaab

#89370
r0.5512890815734863 aaaaa

#89558
r-12.92778587341309 aaaab

#89840
r0.5512957572937012 aaaaa

#90028
r-12.92709541320801 aaaab

#90310
r0.5513091087341309 aaaaa

#90498
r-12.92675113677979 aaaab

#90780
r0.5513157844543457 aaaaa

#90968
r-12.92640686035156 aaaab

#91250
r0.5513224601745605 aaaaa

#91438
r-12.92606258392334 aaaab

#91720
r0.5513291358947754 aaaaa

#91908
r-12.92537593841553 aaaab

#92190
r0.5513424873352051 aaaaa

#92378
r-12.92503356933594 aaaab

#92660
r0.5513491630554199 aaaaa

#92848
r-12.92469120025635 aaaab

#93130
r0.5513558387756348 aaaaa

#93318
r-12.92434978485107 aaaab

#93600
r0.5513620376586914 aaaaa

#93788
r-12.92366790771484 aaaab

#94070
r0.5513753890991211 aaaaa

#94258
r-12.92332744598389 aaaab

#94540
r0.5513820648193359 aaaaa

#94728
r-12.92298793792725 aaaab

#95010
r0.5513887405395508 aaaaa

#95198
r-12.92264842987061 aaaab

#95480
r0.5513954162597656 aaaaa

#95668
r-12.92197227478027 aaaab

#95950
r0.5514087677001953 aaaaa

#96138
r-12.92163467407227 aaaab

#96420
r0.551414966583252 aaaaa

#96608
r-12.92129802703857 aaaab

#96890
r0.5514216423034668 aaaaa

#97078
r-12.92096138000488 aaaab

#97360
r0.5514283180236816 aaaaa

#97548
r-12.92029094696045 aaaab

#97830
r0.5514411926269531 aaaaa

#98018
r-12.91995620727539 aaaab

#98300
r0.551447868347168 aaaaa

#98488
r-12.91962242126465 aaaab

#98770
r0.5514545440673828 aaaaa

#98958
r-12.91928958892822 aaaab

#99240
r0.5514607429504395 aaaaa

#99428
r-12.91862487792969 aaaab

#99710
r0.5514740943908691 aaaaa

#99898
r-12.91829395294189 aaaab

#100180
r0.5514802932739258 aaaaa

#100368
r-12.9179630279541 aaaab

#100650
r0.5514869689941406 aaaaa

#100838
r-12.91763305664062 aaaab

#101120
r0.5514931678771973 aaaaa

#101308
r-12.91697597503662 aaaab

#101590
r0.5515060424804688 aaaaa

#101778
r-12.91664791107178 aaaab

#102060
r0.5515127182006836 aaaaa

#102248
r-12.91632080078125 aaaab

#102530
r0.5515189170837402 aaaaa

#102718
r-12.91599464416504 aaaab

#103000
r0.5515255928039551 aaaaa

#103188
r-12.91534519195557 aaaab

#103470
r0.5515384674072266 aaaaa

#103658
r-12.91502094268799 aaaab

#103940
r0.5515446662902832 aaaaa

#104128
r-12.91469764709473 aaaab

#104410
r0.5515508651733398 aaaaa

#104598
r-12.91437530517578 aaaab

#104880
r0.5515575408935547 aaaaa

#105068
r-12.91373348236084 aaaab

#105350
r0.551569938659668 aaaaa

#105538
r-12.91341400146484 aaaab

#105820
r0.5515761375427246 aaaaa

#106008
r-12.91309547424316 aaaab

#106290
r0.5515828132629395 aaaaa

#106478
r-12.91277694702148 aaaab

#106760
r0.5515890121459961 aaaaa

#106948
r-12.91214275360107 aaaab

#107230
r0.5516014099121094 aaaaa

#107418
r-12.91182708740234 aaaab

#107700
r0.551607608795166 aaaaa

#107888
r-12.91151237487793 aaaab

#108170
r0.5516138076782227 aaaaa

#108358
r-12.91119861602783 aaaab

#108640
r0.5516200065612793 aaaaa

#108828
r-12.91057395935059 aaaab

#109110
r0.5516324043273926 aaaaa

#109298
r-12.91026306152344 aaaab

#109580
r0.5516386032104492 aaaaa

#109768
r-12.90995311737061 aaaab

#110050
r0.5516448020935059 aaaaa

#110238
r-12.90964412689209 aaaab

#110520
r0.5516510009765625 aaaaa

#110708
r-12.90902900695801 aaaab

#110990
r0.5516629219055176 aaaaa

#111178
r-12.90872287750244 aaaab

#111460
r0.5516691207885742 aaaaa

#111648
r-12.90841770172119 aaaab

#111930
r0.5516753196716309 aaaaa

#112118
r-12.90811347961426 aaaab

#112400
r0.5516810417175293 aaaaa

#112588
r-12.90750789642334 aaaab

#112870
r0.5516934394836426 aaaaa

#113058
r-12.90720653533936 aaaab

#113340
r0.551699161529541 aaaaa

#113528
r-12.906907081604 aaaab

#113810
r0.5517053604125977 aaaaa

#113998
r-12.90660858154297 aaaab

#114280
r0.5517110824584961 aaaaa

#114468
r-12.90601444244385 aaaab

#114750
r0.5517230033874512 aaaaa

#114938
r-12.90571880340576 aaaab

#115220
r0.5517287254333496 aaaaa

#115408
r-12.90542411804199 aaaab

#115690
r0.5517349243164062 aaaaa

#115878
r-12.90513038635254 aaaab

#116160
r0.5517406463623047 aaaaa

#116348
r-12.90454769134521 aaaab

#116630
r0.5517520904541016 aaaaa

#116818
r-12.90425777435303 aaaab

#117100
r0.5517578125 aaaaa

#117288
r-12.90396881103516 aaaab

#117570
r0.5517635345458984 aaaaa

#117758
r-12.9036808013916 aaaab

#118040
r0.5517692565917969 aaaaa

#118228
r-12.90310955047607 aaaab

#118510
r0.5517807006835938 aaaaa

#118698
r-12.90282535552979 aaaab

#118980
r0.5517864227294922 aaaaa

#119168
r-12.90254211425781 aaaab

#119450
r0.5517921447753906 aaaaa

#119638
r-12.90226078033447 aaaab

#119920
r0.5517978668212891 aaaaa

#120108
r-12.90170097351074 aaaab

#120390
r0.5518093109130859 aaaaa

#120578
r-12.90142345428467 aaaab

#120860
r0.5518145561218262 aaaaa

#121048
r-12.90114688873291 aaaab

#121330
r0.5518202781677246 aaaaa

#121518
r-12.90087127685547 aaaab

#121800
r0.5518255233764648 aaaaa

#121988
r-12.90032386779785 aaaab

#122270
r0.5518364906311035 aaaaa

#122458
r-12.90005207061768 aaaab

#122740
r0.551842212677002 aaaaa

#122928
r-12.89978218078613 aaaab

#123210
r0.5518474578857422 aaaaa

#123398
r-12.89951324462891 aaaab

#123680
r0.5518531799316406 aaaaa

#123868
r-12.89897918701172 aaaab

#124150
r0.5518636703491211 aaaaa

#124338
r-12.89871406555176 aaaab

#124620
r0.5518689155578613 aaaaa

#124808
r-12.89844989776611 aaaab

#125090
r0.5518741607666016 aaaaa

#125278
r-12.8981876373291 aaaab

#125560
r0.5518794059753418 aaaaa

#125748
r-12.89766693115234 aaaab

#126030
r0.5518898963928223 aaaaa

#126218
r-12.8974084854126 aaaab

#126500
r0.5518951416015625 aaaaa

#126688
r-12.89715194702148 aaaab

#126970
r0.5519003868103027 aaaaa

#127158
r-12.89689636230469 aaaab

#127440
r0.551905632019043 aaaaa

#127628
r-12.89638996124268 aaaab

#127910
r0.5519156455993652 aaaaa

#128098
r-12.89613914489746 aaaab

#128380
r0.5519208908081055 aaaaa

#128568
r-12.89588928222656 aaaab

#128850
r0.5519261360168457 aaaaa

#129038
r-12.8956413269043 aaaab

#129320
r0.5519309043884277 aaaaa

#129508
r-12.89514923095703 aaaab

#129790
r0.55194091796875 aaaaa

#129978
r-12.89490509033203 aaaab

#130260
r0.551945686340332 aaaaa

#130448
r-12.89466285705566 aaaab

#130730
r0.5519509315490723 aaaaa

#130918
r-12.89442157745361 aaaab

#131200
r0.5519556999206543 aaaaa

#131388
r-12.89394474029541 aaaab

#131670
r0.5519652366638184 aaaaa

#131858
r-12.89370822906494 aaaab

#132140
r0.5519700050354004 aaaaa

#132328
r-12.89347362518311 aaaab

#132610
r0.5519747734069824 aaaaa

#132798
r-12.89323997497559 aaaab

#133080
r0.5519795417785645 aaaaa

#133268
r-12.89277839660645 aaaab

#133550
r0.5519890785217285 aaaaa

#133738
r-12.89254951477051 aaaab

#134020
r0.5519933700561523 aaaaa

#134208
r-12.8923225402832 aaaab

#134490
r0.5519981384277344 aaaaa

#134678
r-12.89209651947021 aaaab

#134960
r0.5520029067993164 aaaaa

#135148
r-12.89165019989014 aaaab

#135430
r0.5520119667053223 aaaaa

#135618
r-12.89142894744873 aaaab

#135900
r0.5520162582397461 aaaaa

#136088
r-12.89120960235596 aaaab

#136370
r0.5520205497741699 aaaaa

#136558
r-12.89099216461182 aaaab

#136840
r0.552025318145752 aaaaa

#137028
r-12.89056205749512 aaaab

#137310
r0.5520339012145996 aaaaa

#137498
r-12.89034938812256 aaaab

#137780
r0.5520381927490234 aaaaa

#137968
r-12.89013862609863 aaaab

#138250
r0.5520424842834473 aaaaa

#138438
r-12.88992881774902 aaaab

#138720
r0.5520467758178711 aaaaa

#138908
r-12.8895149230957 aaaab

#139190
r0.5520553588867188 aaaaa

#139378
r-12.88931083679199 aaaab

#139660
r0.5520596504211426 aaaaa

#139848
r-12.8891077041626 aaaab

#140130
r0.5520634651184082 aaaaa

#140318
r-12.88890647888184 aaaab

#140600
r0.552067756652832 aaaaa

#140788
r-12.88850975036621 aaaab

#141070
r0.5520758628845215 aaaaa

#141258
r-12.88831424713135 aaaab

#141540
r0.5520796775817871 aaaaa

#141728
r-12.8881196975708 aaaab

#142010
r0.5520834922790527 aaaaa

#142198
r-12.88792705535889 aaaab

#142480
r0.5520877838134766 aaaaa

#142668
r-12.88754749298096 aaaab

#142950
r0.5520954132080078 aaaaa

#143138
r-12.88736057281494 aaaab

#143420
r0.5520992279052734 aaaaa

#143608
r-12.88717460632324 aaaab

#143890
r0.5521030426025391 aaaaa

#144078
r-12.88699054718018 aaaab

#144360
r0.5521068572998047 aaaaa

#144548
r-12.88662815093994 aaaab

#144830
r0.5521140098571777 aaaaa

#145018
r-12.88644981384277 aaaab

#145300
r0.5521178245544434 aaaaa

#145488
r-12.88627338409424 aaaab

#145770
r0.552121639251709 aaaaa

#145958
r-12.88609886169434 aaaab

#146240
r0.5521249771118164 aaaaa

#146428
r-12.8857536315918 aaaab

#146710
r0.5521321296691895 aaaaa

#146898
r-12.88558387756348 aaaab

#147180
r0.5521354675292969 aaaaa

#147368
r-12.88541603088379 aaaab

#147650
r0.5521388053894043 aaaaa

#147838
r-12.88525009155273 aaaab

#148120
r0.5521421432495117 aaaaa

#148308
r-12.88492393493652 aaaab

#148590
r0.5521488189697266 aaaaa

#148778
r-12.88476371765137 aaaab

#149060
r0.552152156829834 aaaaa

#149248
r-12.88460540771484 aaaab

#149530
r0.5521554946899414 aaaaa

#149718
r-12.88444900512695 aaaab

#150000
r0.5521588325500488 aaaaa

#150188
r-12.88414192199707 aaaab

#150470
r0.5521650314331055 aaaaa

#150658
r-12.88399124145508 aaaab

#150940
r0.5521683692932129 aaaaa

#151128
r-12.88384246826172 aaaab

#151410
r0.5521712303161621 aaaaa

#151598
r-12.88369560241699 aaaab

#151880
r0.5521740913391113 aaaaa

#152068
r-12.88340759277344 aaaab

#152350
r0.552180290222168 aaaaa

#152538
r-12.88326644897461 aaaab

#152820
r0.5521831512451172 aaaaa

#153008
r-12.8831262588501 aaaab

#153290
r0.5521860122680664 aaaaa

#153478
r-12.88298797607422 aaaab

#153760
r0.5521888732910156 aaaaa

#153948
r-12.88271903991699 aaaab

#154230
r0.5521941184997559 aaaaa

#154418
r-12.88258743286133 aaaab

#154700
r0.5521969795227051 aaaaa

#154888
r-12.8824577331543 aaaab

#155170
r0.5521998405456543 aaaaa

#155358
r-12.8823299407959 aaaab

#155640
r0.5522022247314453 aaaaa

#155828
r-12.882080078125 aaaab

#156110
r0.5522074699401855 aaaaa

#156298
r-12.8819580078125 aaaab

#156580
r0.5522098541259766 aaaaa

#156768
r-12.88183784484863 aaaab

#157050
r0.5522122383117676 aaaaa

#157238
r-12.8817195892334 aaaab

#157520
r0.5522146224975586 aaaaa

#157708
r-12.88148880004883 aaaab

#157990
r0.5522193908691406 aaaaa

#158178
r-12.88137626647949 aaaab

#158460
r0.5522217750549316 aaaaa

#158648
r-12.88126564025879 aaaab

#158930
r0.5522241592407227 aaaaa

#159118
r-12.88115692138672 aaaab

#159400
r0.5522260665893555 aaaaa

#159588
r-12.88094520568848 aaaab

#159870
r0.5522308349609375 aaaaa

#160058
r-12.8808422088623 aaaab

#160340
r0.5522327423095703 aaaaa

#160528
r-12.88074207305908 aaaab

#160810
r0.5522346496582031 aaaaa

#160998
r-12.88064384460449 aaaab

#161280
r0.5522370338439941 aaaaa

#161468
r-12.88045310974121 aaaab

#161750
r0.5522408485412598 aaaaa

#161938
r-12.88036060333252 aaaab

#162220
r0.5522427558898926 aaaaa

#162408
r-12.88027000427246 aaaab

#162690
r0.5522446632385254 aaaaa

#162878
r-12.88018131256104 aaaab

#163160
r0.55224609375 aaaaa

#163348
r-12.88000965118408 aaaab

#163630
r0.5522499084472656 aaaaa

#163818
r-12.87992763519287 aaaab

#164100
r0.5522513389587402 aaaaa

#164288
r-12.87984752655029 aaaab

#164570
r0.552253246307373 aaaaa

#164758
r-12.87976932525635 aaaab

#165040
r0.5522546768188477 aaaaa

#165228
r-12.87961864471436 aaaab

#165510
r0.5522580146789551 aaaaa

#165698
r-12.87954616546631 aaaab

#165980
r0.5522594451904297 aaaaa

#166168
r-12.87947559356689 aaaab

#166450
r0.5522608757019043 aaaaa

#166638
r-12.87940788269043 aaaab

#166920
r0.5522623062133789 aaaaa

#167108
r-12.8792781829834 aaaab

#167390
r0.5522646903991699 aaaaa

#167578
r-12.87921619415283 aaaab

#167860
r0.5522661209106445 aaaaa

#168048
r-12.8791561126709 aaaab

#168330
r0.5522670745849609 aaaaa

#168518
r-12.8790979385376 aaaab

#168800
r0.5522685050964355 aaaaa

#168988
r-12.87898921966553 aaaab

#169270
r0.5522704124450684 aaaaa

#169458
r-12.87893772125244 aaaab

#169740
r0.552271842956543 aaaaa

#169928
r-12.87888813018799 aaaab

#170210
r0.5522727966308594 aaaaa

#170398
r-12.87884044647217 aaaab

#170680
r0.5522737503051758 aaaaa

#170868
r-12.87875270843506 aaaab

#171150
r0.5522751808166504 aaaaa

#171338
r-12.87871170043945 aaaab

#171620
r0.5522761344909668 aaaaa

#171808
r-12.87867259979248 aaaab

#172090
r0.5522770881652832 aaaaa

#172278
r-12.87863540649414 aaaab

#172560
r0.5522775650024414 aaaaa

#172748
r-12.87856769561768 aaaab

#173030
r0.552278995513916 aaaaa

#173218
r-12.87853717803955 aaaab

#173500
r0.5522794723510742 aaaaa

#173688
r-12.87850856781006 aaaab

#173970
r0.5522804260253906 aaaaa

#174158
r-12.8784818649292 aaaab

#174440
r0.5522809028625488 aaaaa

#174628
r-12.8784351348877 aaaab

#174910
r0.5522818565368652 aaaaa

#175098
r-12.87841510772705 aaaab

#175568
r-12.87839698791504 aaaab

#175850
r0.5522823333740234 aaaaa

#176038
r-12.87838077545166 aaaab

#176320
r0.5522828102111816 aaaaa

#176508
r-12.87835597991943 aaaab

#176790
r0.5522832870483398 aaaaa

#176978
r-12.87834644317627 aaaab

#177448
r-12.87833881378174 aaaab

#177918
r-12.87833309173584 aaaab

#178388
r-12.87832927703857 aaaab

#178858
r-12.87833023071289 aaaab

#179328
r-12.87833309173584 aaaab

#179798
r-12.87833786010742 aaaab

#180268
r-12.87835502624512 aaaab

#180550
r0.5522828102111816 aaaaa

#180738
r-12.87836647033691 aaaab

#181020
r0.5522823333740234 aaaaa

