Proyecto_3/SISTEMA_COMPLETO/cpu_20ms.vcd
$date
     Aug 11, 2020       17:16:42
$end

$version
 SystemC 2.3.3-Accellera --- Aug  7 2020 19:03:51
$end

$timescale
     1 ns
$end

$scope module SystemC $end
$var real    1  aaaaa  param_1       $end
$var real    1  aaaab  param_2       $end
$var real    1  aaaac  volt       $end
$var real    1  aaaad  current       $end
$upscope $end
$enddefinitions  $end

$comment
All initial values are dumped below at time 0 sec = 0 timescale units.
$end

$dumpvars
r0 aaaaa
r0 aaaab
r0 aaaac
r0 aaaad
$end

#1440
r0.5499997138977051 aaaaa

#1668
r-12.9984302520752 aaaab

#1856
r16.73431396484375 aaaac

#2044
r3.8104248046875 aaaad

#2420
r0.5500097274780273 aaaaa

#2796
r-12.99803352355957 aaaab

#3172
r16.7698974609375 aaaac

#3548
r3.804931640625 aaaad

#4112
r0.550023078918457 aaaaa

#4676
r-12.99704170227051 aaaab

#5240
r16.8289794921875 aaaac

#5804
r3.7969970703125 aaaad

#6556
r0.5500431060791016 aaaaa

#7308
r-12.9956521987915 aaaab

#8060
r16.92364501953125 aaaac

#8812
r3.78662109375 aaaad

#9752
r0.5500698089599609 aaaaa

#10692
r-12.99385833740234 aaaab

#11632
r17.02972412109375 aaaac

#12572
r3.770751953125 aaaad

#13700
r0.550107479095459 aaaaa

#14828
r-12.99186134338379 aaaab

#15956
r17.15997314453125 aaaac

#17084
r3.7506103515625 aaaad

#18400
r0.5501484870910645 aaaaa

#19716
r-12.9892578125 aaaab

#21032
r17.3123779296875 aaaac

#22348
r3.7249755859375 aaaad

#23852
r0.5501976013183594 aaaaa

#25356
r-12.98624038696289 aaaab

#26860
r17.49969482421875 aaaac

#28364
r3.6944580078125 aaaad

#30056
r0.5502538681030273 aaaaa

#31748
r-12.98280334472656 aaaab

#33440
r17.69775390625 aaaac

#35132
r3.6529541015625 aaaad

#37012
r0.5503220558166504 aaaaa

#38892
r-12.97914695739746 aaaab

#40772
r17.9166259765625 aaaac

#42652
r3.60107421875 aaaad

#44720
r0.5503954887390137 aaaaa

#46788
r-12.97485733032227 aaaab

#48856
r18.15597534179688 aaaac

#50924
r3.53515625 aaaad

#53180
r0.5504775047302246 aaaaa

#55436
r-12.97013187408447 aaaab

#57692
r18.42520141601562 aaaac

#59948
r3.4564208984375 aaaad

#62392
r0.5505685806274414 aaaaa

#64836
r-12.96496677398682 aaaab

#67280
r18.69912719726562 aaaac

#69724
r3.3526611328125 aaaad

#72356
r0.5506734848022461 aaaaa

#74988
r-12.95955753326416 aaaab

#77620
r18.98715209960938 aaaac

#80252
r3.22265625 aaaad

#83072
r0.5507845878601074 aaaaa

#85892
r-12.95348739624023 aaaab

#88712
r19.2862548828125 aaaac

#91532
r3.0609130859375 aaaad

#94540
r0.5509066581726074 aaaaa

#97548
r-12.94696044921875 aaaab

#100556
r19.60247802734375 aaaac

#103564
r2.8680419921875 aaaad

#106760
r0.5510392189025879 aaaaa

#109956
r-12.93996429443359 aaaab

#113152
r19.91064453125 aaaac

#116348
r2.6251220703125 aaaad

#119732
r0.5511875152587891 aaaaa

#123116
r-12.93271827697754 aaaab

#126500
r20.21578979492188 aaaac

#129884
r2.335205078125 aaaad

#133456
r0.5513434410095215 aaaaa

#137028
r-12.92479133605957 aaaab

#140600
r20.51321411132812 aaaac

#144172
r1.9970703125 aaaad

#147932
r0.551511287689209 aaaaa

#151692
r-12.91639804840088 aaaab

#155452
r20.80123901367188 aaaac

#159212
r1.627197265625 aaaad

#163160
r0.5516910552978516 aaaaa

#167108
r-12.90754222869873 aaaab

#171056
r21.05804443359375 aaaac

#175004
r1.2213134765625 aaaad

#179140
r0.551887035369873 aaaaa

#183276
r-12.89844989776611 aaaab

#187412
r21.28396606445312 aaaac

#191548
r0.8148193359375 aaaad

#195872
r0.5520896911621094 aaaaa

#200196
r-12.88870811462402 aaaab

#204520
r21.46893310546875 aaaac

#208844
r0.44677734375 aaaad

#213356
r0.5523037910461426 aaaaa

#217868
r-12.87853336334229 aaaab

#222380
r21.60690307617188 aaaac

#226892
r0.169677734375 aaaad

#231592
r0.5525269508361816 aaaaa

#236292
r-12.86795330047607 aaaab

#240992
r21.68310546875 aaaac

#245692
r0.01953125 aaaad

#250580
r0.5527639389038086 aaaaa

#255468
r-12.85720825195312 aaaab

#260356
r21.691162109375 aaaac

#265244
r0.0445556640625 aaaad

#270320
r0.5530052185058594 aaaaa

#275396
r-12.84591102600098 aaaab

#280472
r21.62200927734375 aaaac

#285548
r0.2606201171875 aaaad

#290812
r0.5532517433166504 aaaaa

#296076
r-12.83431148529053 aaaab

#301340
r21.46591186523438 aaaac

#306604
r0.6439208984375 aaaad

#312056
r0.5535030364990234 aaaaa

#317508
r-12.82244873046875 aaaab

#322960
r21.22119140625 aaaac

#328412
r1.162109375 aaaad

#334052
r0.5537600517272949 aaaaa

#339692
r-12.81058216094971 aaaab

#345332
r20.88113403320312 aaaac

#350972
r1.7413330078125 aaaad

#356800
r0.5540122985839844 aaaaa

#362628
r-12.79835510253906 aaaab

#368456
r20.44473266601562 aaaac

#374284
r2.308349609375 aaaad

#380300
r0.5542621612548828 aaaaa

#386316
r-12.78602695465088 aaaab

#392332
r19.90325927734375 aaaac

#398348
r2.7984619140625 aaaad

#404552
r0.5545058250427246 aaaaa

#410756
r-12.77366161346436 aaaab

#416960
r19.27786254882812 aaaac

#423164
r3.1964111328125 aaaad

#429556
r0.5547456741333008 aaaaa

#435948
r-12.76150035858154 aaaab

#442340
r18.570556640625 aaaac

#448732
r3.487548828125 aaaad

#455312
r0.5549721717834473 aaaaa

#461892
r-12.74922657012939 aaaab

#468472
r17.79208374023438 aaaac

#475052
r3.685302734375 aaaad

#481820
r0.5551872253417969 aaaaa

#488588
r-12.73708057403564 aaaab

#495356
r16.94915771484375 aaaac

#502124
r3.8092041015625 aaaad

#509080
r0.555389404296875 aaaaa

#516036
r-12.72511196136475 aaaab

#522992
r16.08743286132812 aaaac

#529948
r3.8848876953125 aaaad

#537092
r0.5555810928344727 aaaaa

#544236
r-12.71349239349365 aaaab

#551380
r15.22067260742188 aaaac

#558524
r3.9288330078125 aaaad

#565856
r0.5557565689086914 aaaaa

#573188
r-12.70193862915039 aaaab

#580520
r14.37908935546875 aaaac

#587852
r3.953857421875 aaaad

#595372
r0.5559191703796387 aaaaa

#602892
r-12.69059944152832 aaaab

#610412
r13.58551025390625 aaaac

#617932
r3.96728515625 aaaad

#625640
r0.5560703277587891 aaaaa

#633348
r-12.67944049835205 aaaab

#641056
r12.89532470703125 aaaac

#648764
r3.974609375 aaaad

#656660
r0.5562138557434082 aaaaa

#664556
r-12.66854763031006 aaaab

#672452
r12.33135986328125 aaaac

#680348
r3.9788818359375 aaaad

#688432
r0.5563483238220215 aaaaa

#696516
r-12.65758514404297 aaaab

#704600
r11.92718505859375 aaaac

#712684
r3.9813232421875 aaaad

#720956
r0.5564785003662109 aaaaa

#729228
r-12.64663124084473 aaaab

#737500
r11.71066284179688 aaaac

#745772
r3.98193359375 aaaad

#754232
r0.5566072463989258 aaaaa

#762692
r-12.6355094909668 aaaab

#771152
r11.70932006835938 aaaac

#788260
r0.556739330291748 aaaaa

#796908
r-12.62442302703857 aaaab

#805556
r11.93524169921875 aaaac

#814204
r3.9801025390625 aaaad

#823040
r0.5568747520446777 aaaaa

#831876
r-12.61297035217285 aaaab

#840712
r12.3924560546875 aaaac

#849548
r3.9764404296875 aaaad

#858572
r0.5570197105407715 aaaaa

#867596
r-12.6011323928833 aaaab

#876620
r13.08029174804688 aaaac

#885644
r3.9691162109375 aaaad

#894856
r0.5571784973144531 aaaaa

#904068
r-12.58879375457764 aaaab

#913280
r13.96282958984375 aaaac

#922492
r3.95263671875 aaaad

#931892
r0.5573587417602539 aaaaa

#941292
r-12.57594013214111 aaaab

#950692
r15.01019287109375 aaaac

#960092
r3.917236328125 aaaad

#969680
r0.5575613975524902 aaaaa

#979268
r-12.56218814849854 aaaab

#988856
r16.17236328125 aaaac

#998444
r3.836669921875 aaaad

#1008220
r0.5577936172485352 aaaaa

#1017996
r-12.54757022857666 aaaab

#1027772
r17.399658203125 aaaac

#1037548
r3.6639404296875 aaaad

#1047512
r0.5580582618713379 aaaaa

#1057476
r-12.53205680847168 aaaab

#1067440
r18.5947265625 aaaac

#1077404
r3.306884765625 aaaad

#1087556
r0.5583605766296387 aaaaa

#1097708
r-12.51581954956055 aaaab

#1107860
r19.69210815429688 aaaac

#1118012
r2.659912109375 aaaad

#1128352
r0.5586938858032227 aaaaa

#1138692
r-12.49863338470459 aaaab

#1149032
r20.61392211914062 aaaac

#1159372
r1.700439453125 aaaad

#1169900
r0.5590572357177734 aaaaa

#1180428
r-12.48079776763916 aaaab

#1190956
r21.29067993164062 aaaac

#1201484
r0.66650390625 aaaad

#1212200
r0.5594420433044434 aaaaa

#1222916
r-12.462477684021 aaaab

#1233632
r21.64852905273438 aaaac

#1244348
r0.0396728515625 aaaad

#1255252
r0.5598464012145996 aaaaa

#1266156
r-12.44411087036133 aaaab

#1277060
r21.6522216796875 aaaac

#1287964
r0.2520751953125 aaaad

#1299056
r0.5602445602416992 aaaaa

#1310148
r-12.42563438415527 aaaab

#1321240
r21.28228759765625 aaaac

#1332332
r1.195068359375 aaaad

#1343612
r0.5606307983398438 aaaaa

#1354892
r-12.40748405456543 aaaab

#1366172
r20.54107666015625 aaaac

#1377452
r2.31201171875 aaaad

#1388920
r0.5609931945800781 aaaaa

#1400388
r-12.38993358612061 aaaab

#1411856
r19.483642578125 aaaac

#1423324
r3.1622314453125 aaaad

#1434980
r0.5613245964050293 aaaaa

#1446636
r-12.37335395812988 aaaab

#1458292
r18.17544555664062 aaaac

#1469948
r3.636474609375 aaaad

#1481792
r0.5616135597229004 aaaaa

#1493636
r-12.35764217376709 aaaab

#1505480
r16.71987915039062 aaaac

#1517324
r3.8494873046875 aaaad

#1529356
r0.5618610382080078 aaaaa

#1541388
r-12.34303379058838 aaaab

#1553420
r15.22738647460938 aaaac

#1565452
r3.9337158203125 aaaad

#1577672
r0.562070369720459 aaaaa

#1589892
r-12.32950592041016 aaaab

#1602112
r13.85775756835938 aaaac

#1614332
r3.96484375 aaaad

#1626740
r0.562248706817627 aaaaa

#1639148
r-12.31699752807617 aaaab

#1651556
r12.73486328125 aaaac

#1663964
r3.97705078125 aaaad

#1676560
r0.5624017715454102 aaaaa

#1689156
r-12.30507564544678 aaaab

#1701752
r11.97921752929688 aaaac

#1714348
r3.9813232421875 aaaad

#1727132
r0.5625410079956055 aaaaa

#1739916
r-12.29353427886963 aaaab

#1752700
r11.68380737304688 aaaac

#1765484
r3.98193359375 aaaad

#1778456
r0.5626764297485352 aaaaa

#1791428
r-12.28197765350342 aaaab

#1804400
r11.90469360351562 aaaac

#1817372
r3.9801025390625 aaaad

#1830532
r0.5628147125244141 aaaaa

#1843692
r-12.27039337158203 aaaab

#1856852
r12.63583374023438 aaaac

#1870012
r3.973388671875 aaaad

#1883360
r0.5629663467407227 aaaaa

#1896708
r-12.25819873809814 aaaab

#1910056
r13.82015991210938 aaaac

#1923404
r3.9532470703125 aaaad

#1936940
r0.5631437301635742 aaaaa

#1950476
r-12.24509811401367 aaaab

#1964012
r15.353271484375 aaaac

#1977548
r3.8922119140625 aaaad

#1991272
r0.5633583068847656 aaaaa

#2004996
r-12.23076152801514 aaaab

#2018720
r17.0518798828125 aaaac

#2032444
r3.704833984375 aaaad

#2046356
r0.5636215209960938 aaaaa

#2060268
r-12.21516036987305 aaaab

#2074180
r18.72967529296875 aaaac

#2088092
r3.193359375 aaaad

#2102192
r0.5639338493347168 aaaaa

#2116292
r-12.19814014434814 aaaab

#2130392
r20.18121337890625 aaaac

#2144492
r2.1173095703125 aaaad

#2158780
r0.5642929077148438 aaaaa

#2173068
r-12.18005752563477 aaaab

#2187356
r21.2198486328125 aaaac

#2201644
r0.704345703125 aaaad

#2216120
r0.5646858215332031 aaaaa

#2230596
r-12.1613073348999 aaaab

#2245072
r21.68142700195312 aaaac

#2259548
r0.0079345703125 aaaad

#2274212
r0.5650925636291504 aaaaa

#2288876
r-12.14260482788086 aaaab

#2303540
r21.4910888671875 aaaac

#2318204
r0.80322265625 aaaad

#2333056
r0.5654888153076172 aaaaa

#2347908
r-12.12426090240479 aaaab

#2362760
r20.649169921875 aaaac

#2377612
r2.2808837890625 aaaad

#2392652
r0.5658507347106934 aaaaa

#2407692
r-12.10696411132812 aaaab

#2422732
r19.23858642578125 aaaac

#2437772
r3.3251953125 aaaad

#2453000
r0.5661616325378418 aaaaa

#2468228
r-12.09117221832275 aaaab

#2483456
r17.45706176757812 aaaac

#2498684
r3.7799072265625 aaaad

#2514100
r0.5664153099060059 aaaaa

#2529516
r-12.07723426818848 aaaab

#2544932
r15.54193115234375 aaaac

#2560348
r3.9263916015625 aaaad

#2575952
r0.5666117668151855 aaaaa

#2591556
r-12.06498241424561 aaaab

#2607160
r13.77618408203125 aaaac

#2622764
r3.96728515625 aaaad

#2638556
r0.5667638778686523 aaaaa

#2654348
r-12.05422401428223 aaaab

#2670140
r12.42837524414062 aaaac

#2685932
r3.9794921875 aaaad

#2701912
r0.5668883323669434 aaaaa

#2717892
r-12.04441261291504 aaaab

#2733872
r11.74188232421875 aaaac

#2749852
r3.98193359375 aaaad

#2766020
r0.5670013427734375 aaaaa

#2782188
r-12.03495121002197 aaaab

#2798356
r11.83889770507812 aaaac

#2814524
r3.980712890625 aaaad

#2830880
r0.5671133995056152 aaaaa

#2847236
r-12.0253963470459 aaaab

#2863592
r12.73117065429688 aaaac

#2879948
r3.9715576171875 aaaad

#2896492
r0.5672416687011719 aaaaa

#2913036
r-12.01511573791504 aaaab

#2929580
r14.3072509765625 aaaac

#2946124
r3.9373779296875 aaaad

#2962856
r0.5674023628234863 aaaaa

#2979588
r-12.00346660614014 aaaab

#2996320
r16.30059814453125 aaaac

#3013052
r3.8006591796875 aaaad

#3029972
r0.5676150321960449 aaaaa

#3046892
r-11.99009609222412 aaaab

#3063812
r18.38357543945312 aaaac

#3080732
r3.3074951171875 aaaad

#3097840
r0.5678873062133789 aaaaa

#3114948
r-11.97484397888184 aaaab

#3132056
r20.18490600585938 aaaac

#3149164
r2.041015625 aaaad

#3166460
r0.5682168006896973 aaaaa

#3183756
r-11.95815753936768 aaaab

#3201052
r21.36956787109375 aaaac

#3218348
r0.3961181640625 aaaad

#3235832
r0.5685849189758301 aaaaa

#3253316
r-11.9407377243042 aaaab

#3270800
r21.68310546875 aaaac

#3288284
r0.208740234375 aaaad

#3305956
r0.5689606666564941 aaaaa

#3323628
r-11.92362689971924 aaaab

#3341300
r21.04595947265625 aaaac

#3358972
r1.7913818359375 aaaad

#3376832
r0.569305419921875 aaaaa

#3394692
r-11.90754795074463 aaaab

#3412552
r19.55313110351562 aaaac

#3430412
r3.2183837890625 aaaad

#3448460
r0.5695919990539551 aaaaa

#3466508
r-11.89336776733398 aaaab

#3484556
r17.46310424804688 aaaac

#3502604
r3.7896728515625 aaaad

#3520840
r0.5698089599609375 aaaaa

#3539076
r-11.88152408599854 aaaab

#3557312
r15.2069091796875 aaaac

#3575548
r3.9404296875 aaaad

#3593972
r0.5699634552001953 aaaaa

#3612396
r-11.87203979492188 aaaab

#3630820
r13.23538208007812 aaaac

#3649244
r3.9739990234375 aaaad

#3667856
r0.5700716972351074 aaaaa

#3686468
r-11.8642110824585 aaaab

#3705080
r11.97552490234375 aaaac

#3723692
r3.9813232421875 aaaad

#3742492
r0.5701565742492676 aaaaa

#3761292
r-11.85719394683838 aaaab

#3780092
r11.72409057617188 aaaac

#3817880
r0.5702381134033203 aaaaa

#3836868
r-11.85025310516357 aaaab

#3855856
r12.56634521484375 aaaac

#3874844
r3.9727783203125 aaaad

#3894020
r0.5703320503234863 aaaaa

#3913196
r-11.84262275695801 aaaab

#3932372
r14.34249877929688 aaaac

#3951548
r3.93310546875 aaaad

#3970912
r0.5704593658447266 aaaaa

#3990276
r-11.83324527740479 aaaab

#4009640
r16.67221069335938 aaaac

#4029004
r3.736572265625 aaaad

#4048556
r0.5706443786621094 aaaaa

#4068108
r-11.82157611846924 aaaab

#4087660
r19.03683471679688 aaaac

#4107212
r2.947998046875 aaaad

#4126952
r0.5708985328674316 aaaaa

#4146692
r-11.80771923065186 aaaab

#4166432
r20.85260009765625 aaaac

#4186172
r1.1383056640625 aaaad

#4206100
r0.5712118148803711 aaaaa

#4226028
r-11.79250717163086 aaaab

#4245956
r21.67572021484375 aaaac

#4265884
r0.0146484375 aaaad

#4286000
r0.5715503692626953 aaaaa

#4306116
r-11.77698421478271 aaaab

#4326232
r21.27658081054688 aaaac

#4346348
r1.4385986328125 aaaad

#4366652
r0.5718646049499512 aaaaa

#4386956
r-11.762526512146 aaaab

#4407260
r19.7119140625 aaaac

#4427564
r3.1585693359375 aaaad

#4448056
r0.5721182823181152 aaaaa

#4468548
r-11.75028324127197 aaaab

#4489040
r17.36508178710938 aaaac

#4509532
r3.81103515625 aaaad

#4530212
r0.5722947120666504 aaaaa

#4550892
r-11.74091625213623 aaaab

#4571572
r14.8228759765625 aaaac

#4592252
r3.9520263671875 aaaad

#4613120
r0.5724034309387207 aaaaa

#4633988
r-11.73421382904053 aaaab

#4654856
r12.75433349609375 aaaac

#4675724
r3.9776611328125 aaaad

#4696780
r0.5724706649780273 aaaaa

#4717836
r-11.72929382324219 aaaab

#4738892
r11.72946166992188 aaaac

#4759948
r3.98193359375 aaaad

#4781192
r0.5725235939025879 aaaaa

#4802436
r-11.72487354278564 aaaab

#4823680
r12.06649780273438 aaaac

#4844924
r3.978271484375 aaaad

#4866356
r0.5725784301757812 aaaaa

#4887788
r-11.72012138366699 aaaab

#4909220
r13.69796752929688 aaaac

#4930652
r3.951416015625 aaaad

#4952272
r0.5726604461669922 aaaaa

#4973892
r-11.71365261077881 aaaab

#4995512
r16.1925048828125 aaaac

#5017132
r3.7939453125 aaaad

#5038940
r0.5727972984313965 aaaaa

#5060748
r-11.70451259613037 aaaab

#5082556
r18.86160278320312 aaaac

#5104364
r3.0133056640625 aaaad

#5126360
r0.5730085372924805 aaaaa

#5148356
r-11.69268894195557 aaaab

#5170352
r20.90060424804688 aaaac

#5192348
r1.0125732421875 aaaad

#5214532
r0.5732855796813965 aaaaa

#5236716
r-11.67918968200684 aaaab

#5258900
r21.69586181640625 aaaac

#5281084
r0.10009765625 aaaad

#5303456
r0.5735812187194824 aaaaa

#5325828
r-11.66548633575439 aaaab

#5348200
r20.97512817382812 aaaac

#5370572
r2.0245361328125 aaaad

#5393132
r0.573845386505127 aaaaa

#5415692
r-11.65337467193604 aaaab

#5438252
r18.91397094726562 aaaac

#5460812
r3.5223388671875 aaaad

#5483560
r0.5740346908569336 aaaaa

#5506308
r-11.6441650390625 aaaab

#5529056
r16.14483642578125 aaaac

#5551804
r3.9093017578125 aaaad

#5574740
r0.5741434097290039 aaaaa

#5597676
r-11.63833618164062 aaaab

#5620612
r13.52877807617188 aaaac

#5643548
r3.97216796875 aaaad

#5666672
r0.5741949081420898 aaaaa

#5689796
r-11.63509082794189 aaaab

#5712920
r11.91946411132812 aaaac

#5736044
r3.98193359375 aaaad

#5759356
r0.5742225646972656 aaaaa

#5782668
r-11.63287353515625 aaaab

#5805980
r11.87347412109375 aaaac

#5829292
r3.9794921875 aaaad

#5852792
r0.574249267578125 aaaaa

#5876292
r-11.6304874420166 aaaab

#5899792
r13.44284057617188 aaaac

#5923292
r3.956298828125 aaaad

#5946980
r0.5742979049682617 aaaaa

#5970668
r-11.62632846832275 aaaab

#5994356
r16.12704467773438 aaaac

#6018044
r3.7945556640625 aaaad

#6041920
r0.5744023323059082 aaaaa

#6065796
r-11.619065284729 aaaab

#6089672
r19.0244140625 aaaac

#6113548
r2.87109375 aaaad

#6137612
r0.5745863914489746 aaaaa

#6161676
r-11.60869598388672 aaaab

#6185740
r21.12887573242188 aaaac

#6209804
r0.6329345703125 aaaad

#6234056
r0.5748357772827148 aaaaa

#6258308
r-11.59648990631104 aaaab

#6282560
r21.65692138671875 aaaac

#6306812
r0.45654296875 aaaad

#6331252
r0.5751004219055176 aaaaa

#6355692
r-11.58462524414062 aaaab

#6380132
r20.39303588867188 aaaac

#6404572
r2.7459716796875 aaaad

#6429200
r0.575310230255127 aaaaa

#6453828
r-11.57504463195801 aaaab

#6478456
r17.76287841796875 aaaac

#6503084
r3.779296875 aaaad

#6527900
r0.5754337310791016 aaaaa

#6552716
r-11.56910514831543 aaaab

#6577532
r14.70437622070312 aaaac

#6602348
r3.9569091796875 aaaad

#6627352
r0.5754814147949219 aaaaa

#6652356
r-11.56670665740967 aaaab

#6677360
r12.38742065429688 aaaac

#6702364
r3.9801025390625 aaaad

#6727556
r0.5754909515380859 aaaaa

#6752748
r-11.56624507904053 aaaab

#6777940
r11.70462036132812 aaaac

#6803132
r3.9813232421875 aaaad

#6828512
r0.575493335723877 aaaaa

#6853892
r-11.56587791442871 aaaab

#6879272
r12.95574951171875 aaaac

#6904652
r3.9654541015625 aaaad

#6930220
r0.5755109786987305 aaaaa

#6955788
r-11.56398963928223 aaaab

#6981356
r15.70004272460938 aaaac

#7006924
r3.8360595703125 aaaad

#7032680
r0.5755791664123535 aaaaa

#7058436
r-11.55873584747314 aaaab

#7084192
r18.84918212890625 aaaac

#7109948
r2.9522705078125 aaaad

#7135892
r0.5757322311401367 aaaaa

#7161836
r-11.54988765716553 aaaab

#7187780
r21.1419677734375 aaaac

#7213724
r0.5657958984375 aaaad

#7239856
r0.5759572982788086 aaaaa

#7265988
r-11.53893375396729 aaaab

#7292120
r21.615966796875 aaaac

#7318252
r0.6768798828125 aaaad

#7344572
r0.5761933326721191 aaaaa

#7370892
r-11.52838039398193 aaaab

#7397212
r20.02847290039062 aaaac

#7423532
r3.05419921875 aaaad

#7450040
r0.5763649940490723 aaaaa

#7476548
r-11.52071475982666 aaaab

#7503056
r17.02066040039062 aaaac

#7529564
r3.8616943359375 aaaad

#7556260
r0.576444149017334 aaaaa

#7582956
r-11.51723575592041 aaaab

#7609652
r13.85238647460938 aaaac

#7636348
r3.9697265625 aaaad

#7663232
r0.576453685760498 aaaaa

#7690116
r-11.51727867126465 aaaab

#7717000
r11.89865112304688 aaaac

#7743884
r3.98193359375 aaaad

#7770956
r0.5764389038085938 aaaaa

#7798028
r-11.51862812042236 aaaab

#7825100
r12.050048828125 aaaac

#7852172
r3.9776611328125 aaaad

#7879432
r0.5764265060424805 aaaaa

#7906692
r-11.51935863494873 aaaab

#7933952
r14.27703857421875 aaaac

#7961212
r3.927001953125 aaaad

#7988660
r0.5764460563659668 aaaaa

#8016108
r-11.51717090606689 aaaab

#8043556
r17.60980224609375 aaaac

#8071004
r3.46923828125 aaaad

#8098640
r0.5765414237976074 aaaaa

#8126276
r-11.51075649261475 aaaab

#8153912
r20.53872680664062 aaaac

#8181548
r1.3519287109375 aaaad

#8209372
r0.576725959777832 aaaaa

#8237196
r-11.50118446350098 aaaab

#8265020
r21.696533203125 aaaac

#8292844
r0.198974609375 aaaad

#8320856
r0.5769472122192383 aaaaa

#8348868
r-11.49117851257324 aaaab

#8376880
r20.49609375 aaaac

#8404892
r2.716064453125 aaaad

#8433092
r0.5771164894104004 aaaaa

#8461292
r-11.48385620117188 aaaab

#8489492
r17.4735107421875 aaaac

#8517692
r3.8262939453125 aaaad

#8546080
r0.5771880149841309 aaaaa

#8574468
r-11.48101997375488 aaaab

#8602856
r14.05615234375 aaaac

#8631244
r3.968505859375 aaaad

#8659820
r0.5771832466125488 aaaaa

#8688396
r-11.48221969604492 aaaab

#8716972
r11.90402221679688 aaaac

#8745548
r3.98193359375 aaaad

#8774312
r0.5771536827087402 aaaaa

#8803076
r-11.48486709594727 aaaab

#8831840
r12.12155151367188 aaaac

#8860604
r3.9764404296875 aaaad

#8889556
r0.5771255493164062 aaaaa

#8918508
r-11.48673057556152 aaaab

#8947460
r14.63052368164062 aaaac

#8976412
r3.907470703125 aaaad

#9005552
r0.5771346092224121 aaaaa

#9034692
r-11.48508739471436 aaaab

#9063832
r18.19927978515625 aaaac

#9092972
r3.228759765625 aaaad

#9122300
r0.5772304534912109 aaaaa

#9151628
r-11.47877407073975 aaaab

#9180956
r21.01608276367188 aaaac

#9210284
r0.6793212890625 aaaad

#9239800
r0.5774149894714355 aaaaa

#9269316
r-11.46953201293945 aaaab

#9298832
r21.58441162109375 aaaac

#9328348
r0.8648681640625 aaaad

#9358052
r0.5776128768920898 aaaaa

#9387756
r-11.46078395843506 aaaab

#9417460
r19.57696533203125 aaaac

#9447164
r3.3514404296875 aaaad

#9477056
r0.5777339935302734 aaaaa

#9506948
r-11.45580005645752 aaaab

#9536840
r16.019287109375 aaaac

#9566732
r3.9251708984375 aaaad

#9596812
r0.5777530670166016 aaaaa

#9626892
r-11.45587730407715 aaaab

#9656972
r12.79763793945312 aaaac

#9687052
r3.9788818359375 aaaad

#9717320
r0.5777173042297363 aaaaa

#9747588
r-11.45925235748291 aaaab

#9777856
r11.69790649414062 aaaac

#9808124
r3.9813232421875 aaaad

#9838580
r0.5776729583740234 aaaaa

#9869036
r-11.46278476715088 aaaab

#9899492
r13.3511962890625 aaaac

#9929948
r3.9544677734375 aaaad

#9960592
r0.5776472091674805 aaaaa

#9991236
r-11.4638032913208 aaaab

#10021880
r16.87966918945312 aaaac

#10052524
r3.6322021484375 aaaad

#10083356
r0.5776944160461426 aaaaa

#10114188
r-11.45980262756348 aaaab

#10145020
r20.32589721679688 aaaac

#10175852
r1.5478515625 aaaad

#10206872
r0.5778441429138184 aaaaa

#10237892
r-11.45163345336914 aaaab

#10268912
r21.69552612304688 aaaac

#10299932
r0.2789306640625 aaaad

#10331140
r0.5780386924743652 aaaaa

#10362348
r-11.44292068481445 aaaab

#10393556
r20.17315673828125 aaaac

#10424764
r3.038330078125 aaaad

#10456160
r0.5781693458557129 aaaaa

#10487556
r-11.4376049041748 aaaab

#10518952
r16.6033935546875 aaaac

#10550348
r3.9007568359375 aaaad

#10581932
r0.5781912803649902 aaaaa

#10613516
r-11.43776702880859 aaaab

#10645100
r13.05947875976562 aaaac

#10676684
r3.97705078125 aaaad

#10708456
r0.5781478881835938 aaaaa

#10740228
r-11.44182014465332 aaaab

#10772000
r11.68548583984375 aaaac

#10803772
r3.9813232421875 aaaad

#10835732
r0.5780935287475586 aaaaa

#10867692
r-11.44626998901367 aaaab

#10899652
r13.33709716796875 aaaac

#10931612
r3.953857421875 aaaad

#10963760
r0.578056812286377 aaaaa

#10995908
r-11.44802474975586 aaaab

#11028056
r17.04986572265625 aaaac

#11060204
r3.5821533203125 aaaad

#11092540
r0.5780982971191406 aaaaa

#11124876
r-11.44426727294922 aaaab

#11157212
r20.56390380859375 aaaac

#11189548
r1.214599609375 aaaad

#11222072
r0.5782485008239746 aaaaa

#11254596
r-11.43619537353516 aaaab

#11287120
r21.65524291992188 aaaac

#11319644
r0.6329345703125 aaaad

#11352356
r0.57843017578125 aaaaa

#11385068
r-11.42807579040527 aaaab

#11417780
r19.60684204101562 aaaac

#11450492
r3.37158203125 aaaad

#11483392
r0.5785326957702637 aaaaa

#11516292
r-11.42425155639648 aaaab

#11549192
r15.68292236328125 aaaac

#11582092
r3.9398193359375 aaaad

#11615180
r0.578524112701416 aaaaa

#11648268
r-11.42630481719971 aaaab

#11681356
r12.38641357421875 aaaac

#11714444
r3.980712890625 aaaad

#11747720
r0.5784635543823242 aaaaa

#11780996
r-11.43148994445801 aaaab

#11814272
r11.90234375 aaaac

#11847548
r3.978271484375 aaaad

#11881012
r0.5784015655517578 aaaaa

#11914476
r-11.43620109558105 aaaab

#11947940
r14.579833984375 aaaac

#11981404
r3.9031982421875 aaaad

#12015056
r0.5783782005310059 aaaaa

#12048708
r-11.43651676177979 aaaab

#12082360
r18.67831420898438 aaaac

#12116012
r2.9132080078125 aaaad

#12149852
r0.5784602165222168 aaaaa

#12183692
r-11.43085479736328 aaaab

#12217532
r21.454833984375 aaaac

#12251372
r0.07080078125 aaaad

#12285400
r0.5786385536193848 aaaaa

#12319428
r-11.42238235473633 aaaab

#12353456
r20.98117065429688 aaaac

#12387484
r2.2833251953125 aaaad

#12421700
r0.5787887573242188 aaaaa

#12455916
r-11.41631698608398 aaaab

#12490132
r17.54736328125 aaaac

#12524348
r3.8372802734375 aaaad

#12558752
r0.5788192749023438 aaaaa

#12593156
r-11.41629981994629 aaaab

#12627560
r13.50192260742188 aaaac

#12661964
r3.974609375 aaaad

#12696556
r0.5787639617919922 aaaaa

#12731148
r-11.42136669158936 aaaab

#12765740
r11.68246459960938 aaaac

#12800332
r3.9813232421875 aaaad

#12835112
r0.5786924362182617 aaaaa

#12869892
r-11.42719459533691 aaaab

#12904672
r13.42437744140625 aaaac

#12939452
r3.9501953125 aaaad

#12974420
r0.578641414642334 aaaaa

#13009388
r-11.4297513961792 aaaab

#13044356
r17.51748657226562 aaaac

#13079324
r3.424072265625 aaaad

#13114480
r0.5786833763122559 aaaaa

#13149636
r-11.42587375640869 aaaab

#13184792
r21.0264892578125 aaaac

#13219948
r0.531005859375 aaaad

#13255292
r0.5788402557373047 aaaaa

#13290636
r-11.41770839691162 aaaab

#13325980
r21.36688232421875 aaaac

#13361324
r1.62109375 aaaad

#13396856
r0.5790019035339355 aaaaa

#13432388
r-11.41089916229248 aaaab

#13467920
r18.24191284179688 aaaac

#13503452
r3.7567138671875 aaaad

#13539172
r0.5790495872497559 aaaaa

#13574892
r-11.41017913818359 aaaab

#13610612
r13.94503784179688 aaaac

#13646332
r3.9715576171875 aaaad

#13682240
r0.5789947509765625 aaaaa

#13718148
r-11.41532707214355 aaaab

#13754056
r11.70327758789062 aaaac

#13789964
r3.98193359375 aaaad

