Proyecto_3/SISTEMA_COMPLETO/estimador.vcd
$date
     Aug 11, 2020       11:32:55
$end

$version
 SystemC 2.3.3-Accellera --- Aug  7 2020 19:03:51
$end

$timescale
     1 ns
$end

$scope module SystemC $end
$var wire   16  aaaaa  adc_v [15:0]  $end
$var wire   16  aaaab  adc_i [15:0]  $end
$var wire    1  aaaac  start       $end
$var real    1  aaaad  param_1       $end
$var real    1  aaaae  param_2       $end
$var wire   32  aaaaf  volt [31:0]  $end
$var wire   32  aaaag  current [31:0]  $end
$var wire   32  aaaah  aux_adc [31:0]  $end
$upscope $end
$enddefinitions  $end

$comment
All initial values are dumped below at time 0 sec = 0 timescale units.
$end

$dumpvars
b0 aaaaa
b0 aaaab
0aaaac
r0 aaaad
r0 aaaae
b0 aaaaf
b0 aaaag
b0 aaaah
$end

#7
b1 aaaah

#14
b110101011010000 aaaah

#21
b110101011010001 aaaah

#35
b110101011010010 aaaah

#56
b110101011010011 aaaah

#77
b110101011010100 aaaah

#91
b110101011010101 aaaah

#105
b110101011010110 aaaah

#126
b110101011010111 aaaah

#147
b110101011011000 aaaah

#168
b110101011011001 aaaah

#189
b110101011011010 aaaah

#210
b110101011011011 aaaah

#231
b110101011011100 aaaah

#245
b110101011011101 aaaah

#266
b110101011011110 aaaah

#287
b110101011011111 aaaah

#308
b110101011100000 aaaah

#329
b110101011100001 aaaah

#350
b110101011100010 aaaah

#371
b110101011100011 aaaah

#385
b110101011100100 aaaah

#406
b110101011100101 aaaah

#420
b110101011100110 aaaah

#441
b110101011100111 aaaah

#455
b110101011101000 aaaah

#476
b110101011101001 aaaah

#497
b110101011101010 aaaah

#518
b110101011101011 aaaah

#539
b110101011101100 aaaah

#560
b110101011101101 aaaah

#581
b110101011101110 aaaah

#595
b110101011101111 aaaah

#616
b110101011110000 aaaah

#637
b110101011110001 aaaah

#658
b110101011110010 aaaah

#679
b110101011110011 aaaah

#700
b110101011110100 aaaah

#721
b110101011110101 aaaah

#728
b110101011110110 aaaah

#749
b110101011110111 aaaah

#770
b110101011111000 aaaah

#791
b110101011111001 aaaah

#805
b110101011111010 aaaah

#826
b110101011111011 aaaah

#847
b110101011111100 aaaah

#868
b110101011111101 aaaah

#889
b110101011111110 aaaah

#910
b110101011111111 aaaah

#931
b110101100000000 aaaah

#945
b110101100000001 aaaah

#947
1aaaac

#966
b110101100000010 aaaah

#987
b110101100000011 aaaah

#1008
b110101100000100 aaaah

#1029
b110101100000101 aaaah

#1050
b110101100000110 aaaah

#1057
b110101100000111 aaaah

#1067
0aaaac
r0.5499997138977051 aaaad
r-12.99862861633301 aaaae

#1078
b110101100001000 aaaah

#1099
b110101100001001 aaaah

#1120
b110101100001010 aaaah

#1141
b110101100001011 aaaah

#1155
b110101100001100 aaaah

#1176
b110101100001101 aaaah

#1197
b110101100001110 aaaah

#1218
b110101100001111 aaaah

#1239
b110101100010000 aaaah

#1260
b110101100010001 aaaah

#1281
b110101100010010 aaaah

#1295
b110101100010011 aaaah

#1316
b110101100010100 aaaah

#1337
b110101100010101 aaaah

#1358
b110101100010110 aaaah

#1379
b110101100010111 aaaah

#1386
b110101100011000 aaaah

#1407
b110101100011001 aaaah

#1428
b110101100011010 aaaah

#1443
b1100001010111010 aaaaa
b1100001101011110 aaaab
r0.5500029921531677 aaaad
r-12.99843311309814 aaaae

#1449
b110101100011011 aaaah

#1470
b110101100011100 aaaah

#1491
b110101100011101 aaaah

#1505
b110101100011110 aaaah

#1526
b110101100011111 aaaah

#1547
b110101100100000 aaaah

#1568
b110101100100001 aaaah

#1589
b110101100100010 aaaah

#1610
b110101100100011 aaaah

#1631
b10000101110111111110000000 aaaaf
b110101100100100 aaaah

#1645
b110101100100101 aaaah

#1666
b110101100100110 aaaah

#1687
b110101100100111 aaaah

#1701
b110101100101000 aaaah

#1715
b110101100101001 aaaah

#1725
b11110100001101011000000 aaaag

#1736
b110101100101010 aaaah

#1757
b110101100101011 aaaah

#1778
b110101100101100 aaaah

#1799
b110101100101101 aaaah

#1819
b1100001011011101 aaaaa
b1100001100110000 aaaab
r0.5500062704086304 aaaad
r-12.99823665618896 aaaae

#1820
b110101100101110 aaaah

#1841
b110101100101111 aaaah

#1855
b110101100110000 aaaah

#1876
b110101100110001 aaaah

#1897
b110101100110010 aaaah

#1918
b110101100110011 aaaah

#1939
b110101100110100 aaaah

#1960
b110101100110101 aaaah

#1981
b110101100110110 aaaah

#1995
b110101100110111 aaaah

#2007
b10000101111101111111000000 aaaaf

#2016
b110101100111000 aaaah

#2030
b110101100111001 aaaah

#2051
b110101100111010 aaaah

#2065
b110101100111011 aaaah

#2086
b110101100111100 aaaah

#2101
b11110011111111000000000 aaaag

#2107
b110101100111101 aaaah

#2128
b110101100111110 aaaah

#2149
b110101100111111 aaaah

#2170
b110101101000000 aaaah

#2191
b110101101000001 aaaah

#2195
b1100001100000001 aaaaa
b1100001100000010 aaaab
r0.5500096082687378 aaaad
r-12.99803924560547 aaaae

#2205
b110101101000010 aaaah

#2226
b110101101000011 aaaah

#2247
b110101101000100 aaaah

#2268
b110101101000101 aaaah

#2289
b110101101000110 aaaah

#2310
b110101101000111 aaaah

#2331
b110101101001000 aaaah

#2345
b110101101001001 aaaah

#2359
b110101101001010 aaaah

#2380
b110101101001011 aaaah

#2383
b10000110000100001011000000 aaaaf

#2401
b110101101001100 aaaah

#2415
b110101101001101 aaaah

#2436
b110101101001110 aaaah

#2457
b110101101001111 aaaah

#2477
b11110011110000101000000 aaaag

#2478
b110101101010000 aaaah

#2499
b110101101010001 aaaah

#2520
b110101101010010 aaaah

#2541
b110101101010011 aaaah

#2555
b110101101010100 aaaah

#2571
b1100001100100100 aaaaa
b1100001011010011 aaaab
r0.5500129461288452 aaaad
r-12.99783992767334 aaaae

#2576
b110101101010101 aaaah

#2597
b110101101010110 aaaah

#2618
b110101101010111 aaaah

#2639
b110101101011000 aaaah

#2660
b110101101011001 aaaah

#2681
b110101101011010 aaaah

#2688
b110101101011011 aaaah

#2709
b110101101011100 aaaah

#2730
b110101101011101 aaaah

#2751
b110101101011110 aaaah

#2759
b10000110001010001100000000 aaaaf

#2765
b110101101011111 aaaah

#2786
b110101101100000 aaaah

#2807
b110101101100001 aaaah

#2828
b110101101100010 aaaah

#2849
b110101101100011 aaaah

#2853
b11110011100001111100000 aaaag

#2870
b110101101100100 aaaah

#2891
b110101101100101 aaaah

#2905
b110101101100110 aaaah

#2926
b110101101100111 aaaah

#2947
b1100001101000110 aaaaa
b1100001010100011 aaaab
r0.5500162839889526 aaaad
r-12.99763965606689 aaaae
b110101101101000 aaaah

#2968
b110101101101001 aaaah

#2989
b110101101101010 aaaah

#2996
b110101101101011 aaaah

#3017
b110101101101100 aaaah

#3038
b110101101101101 aaaah

#3059
b110101101101110 aaaah

#3080
b110101101101111 aaaah

#3101
b110101101110000 aaaah

#3115
b110101101110001 aaaah

#3135
b10000110010000000010000000 aaaaf

#3136
b110101101110010 aaaah

#3157
b110101101110011 aaaah

#3178
b110101101110100 aaaah

#3199
b110101101110101 aaaah

#3220
b110101101110110 aaaah

#3229
b11110011010010111100000 aaaag

#3241
b110101101110111 aaaah

#3255
b110101101111000 aaaah

#3276
b110101101111001 aaaah

#3297
b110101101111010 aaaah

#3318
b110101101111011 aaaah

#3323
b1100001101101011 aaaaa
b1100001001110010 aaaab
r0.5500196814537048 aaaad
r-12.99743843078613 aaaae

#3325
b110101101111100 aaaah

#3346
b110101101111101 aaaah

#3367
b110101101111110 aaaah

#3388
b110101101111111 aaaah

#3409
b110101110000000 aaaah

#3430
b110101110000001 aaaah

#3451
b110101110000010 aaaah

#3465
b110101110000011 aaaah

#3486
b110101110000100 aaaah

#3507
b110101110000101 aaaah

#3511
b10000110010110011001000000 aaaaf

#3528
b110101110000110 aaaah

#3549
b110101110000111 aaaah

#3570
b110101110001000 aaaah

#3591
b110101110001001 aaaah

#3605
b11110011000011101000000 aaaag
b110101110001010 aaaah

#3626
b110101110001011 aaaah

#3647
b110101110001100 aaaah

#3661
b110101110001101 aaaah

#3675
b110101110001110 aaaah

#3696
b110101110001111 aaaah

#3699
b1100001110001111 aaaaa
b1100001001000000 aaaab
r0.550023078918457 aaaad
r-12.99723625183105 aaaae

#3717
b110101110010000 aaaah

#3738
b110101110010001 aaaah

#3759
b110101110010010 aaaah

#3780
b110101110010011 aaaah

#3801
b110101110010100 aaaah

#3815
b110101110010101 aaaah

#3836
b110101110010110 aaaah

#3857
b110101110010111 aaaah

#3878
b110101110011000 aaaah

#3887
b10000110011100100101000000 aaaaf

#3899
b110101110011001 aaaah

#3920
b110101110011010 aaaah

#3941
b110101110011011 aaaah

#3955
b110101110011100 aaaah

#3976
b110101110011101 aaaah

#3981
b11110010110100000000000 aaaag

#3990
b110101110011110 aaaah

#4011
b110101110011111 aaaah

#4025
b110101110100000 aaaah

#4046
b110101110100001 aaaah

#4067
b110101110100010 aaaah

#4075
b1100001110110010 aaaaa
b1100001000001101 aaaab
r0.550026535987854 aaaad
r-12.99703216552734 aaaae

#4088
b110101110100011 aaaah

#4109
b110101110100100 aaaah

#4130
b110101110100101 aaaah

#4151
b110101110100110 aaaah

#4165
b110101110100111 aaaah

#4186
b110101110101000 aaaah

#4207
b110101110101001 aaaah

#4228
b110101110101010 aaaah

#4249
b110101110101011 aaaah

#4263
b10000110100010100110000000 aaaaf

#4270
b110101110101100 aaaah

#4291
b110101110101101 aaaah

#4305
b110101110101110 aaaah

#4319
b110101110101111 aaaah

#4340
b110101110110000 aaaah

#4357
b11110010100100000100000 aaaag

#4361
b110101110110001 aaaah

#4375
b110101110110010 aaaah

#4396
b110101110110011 aaaah

#4417
b110101110110100 aaaah

#4438
b110101110110101 aaaah

#4451
b1100001111010100 aaaaa
b1100000111011001 aaaab
r0.550029993057251 aaaad
r-12.99682712554932 aaaae

#4459
b110101110110110 aaaah

#4480
b110101110110111 aaaah

#4501
b110101110111000 aaaah

#4515
b110101110111001 aaaah

#4536
b110101110111010 aaaah

#4557
b110101110111011 aaaah

#4578
b110101110111100 aaaah

#4599
b110101110111101 aaaah

#4620
b110101110111110 aaaah

#4639
b10000110101000011100000000 aaaaf

#4641
b110101110111111 aaaah

#4648
b110101111000000 aaaah

#4669
b110101111000001 aaaah

#4690
b110101111000010 aaaah

#4711
b110101111000011 aaaah

#4725
b110101111000100 aaaah

#4733
b11110010010011110100000 aaaag

#4746
b110101111000101 aaaah

#4767
b110101111000110 aaaah

#4788
b110101111000111 aaaah

#4809
b110101111001000 aaaah

#4827
b1100001111110111 aaaaa
b1100000110100100 aaaab
r0.5500334501266479 aaaad
r-12.99662113189697 aaaae

#4830
b110101111001001 aaaah

#4851
b110101111001010 aaaah

#4865
b110101111001011 aaaah

#4886
b110101111001100 aaaah

#4907
b110101111001101 aaaah

#4928
b110101111001110 aaaah

#4949
b110101111001111 aaaah

#4970
b110101111010000 aaaah

#4977
b110101111010001 aaaah

#4998
b110101111010010 aaaah

#5015
b10000110101110011101000000 aaaaf

#5019
b110101111010011 aaaah

#5040
b110101111010100 aaaah

#5061
b110101111010101 aaaah

#5075
b110101111010110 aaaah

#5096
b110101111010111 aaaah

#5109
b11110010000011010000000 aaaag

#5117
b110101111011000 aaaah

#5138
b110101111011001 aaaah

#5159
b110101111011010 aaaah

#5180
b110101111011011 aaaah

#5201
b110101111011100 aaaah

#5203
b1100010000011011 aaaaa
b1100000101101110 aaaab
r0.5500369668006897 aaaad
r-12.996413230896 aaaae

#5215
b110101111011101 aaaah

#5236
b110101111011110 aaaah

#5257
b110101111011111 aaaah

#5278
b110101111100000 aaaah

#5299
b110101111100001 aaaah

#5306
b110101111100010 aaaah

#5327
b110101111100011 aaaah

#5348
b110101111100100 aaaah

#5369
b110101111100101 aaaah

#5390
b110101111100110 aaaah

#5391
b10000110110100101001000000 aaaaf

#5411
b110101111100111 aaaah

#5425
b110101111101000 aaaah

#5446
b110101111101001 aaaah

#5467
b110101111101010 aaaah

#5485
b11110001110010011000000 aaaag

#5488
b110101111101011 aaaah

#5509
b110101111101100 aaaah

#5530
b110101111101101 aaaah

#5551
b110101111101110 aaaah

#5565
b110101111101111 aaaah

#5579
b1100010000111110 aaaaa
b1100000100110111 aaaab
r0.5500404834747314 aaaad
r-12.9962043762207 aaaae

#5586
b110101111110000 aaaah

#5607
b110101111110001 aaaah

#5628
b110101111110010 aaaah

#5635
b110101111110011 aaaah

#5656
b110101111110100 aaaah

#5677
b110101111110101 aaaah

#5698
b110101111110110 aaaah

#5719
b110101111110111 aaaah

#5740
b110101111111000 aaaah

#5761
b110101111111001 aaaah

#5767
b10000110111010101010000000 aaaaf

#5775
b110101111111010 aaaah

#5796
b110101111111011 aaaah

#5817
b110101111111100 aaaah

#5838
b110101111111101 aaaah

#5859
b110101111111110 aaaah

#5861
b11110001100001001100000 aaaag

#5880
b110101111111111 aaaah

#5901
b110110000000000 aaaah

#5915
b110110000000001 aaaah

#5936
b110110000000010 aaaah

#5955
b1100010001100000 aaaaa
b1100000011111111 aaaab
r0.5500440001487732 aaaad
r-12.99599456787109 aaaae

#5957
b110110000000011 aaaah

#5971
b110110000000100 aaaah

#5985
b110110000000101 aaaah

#6006
b110110000000110 aaaah

#6027
b110110000000111 aaaah

#6048
b110110000001000 aaaah

#6069
b110110000001001 aaaah

#6090
b110110000001010 aaaah

#6111
b110110000001011 aaaah

#6125
b110110000001100 aaaah

#6143
b10000111000000100000000000 aaaaf

#6146
b110110000001101 aaaah

#6167
b110110000001110 aaaah

#6188
b110110000001111 aaaah

#6209
b110110000010000 aaaah

#6230
b110110000010001 aaaah

#6237
b11110001001111101100000 aaaag

#6251
b110110000010010 aaaah

#6265
b110110000010011 aaaah

#6286
b110110000010100 aaaah

#6300
b110110000010101 aaaah

#6321
b110110000010110 aaaah

#6331
b1100010010000101 aaaaa
b1100000011000110 aaaab
r0.5500475764274597 aaaad
r-12.99578380584717 aaaae

#6335
b110110000010111 aaaah

#6356
b110110000011000 aaaah

#6377
b110110000011001 aaaah

#6398
b110110000011010 aaaah

#6419
b110110000011011 aaaah

#6440
b110110000011100 aaaah

#6461
b110110000011101 aaaah

#6475
b110110000011110 aaaah

#6496
b110110000011111 aaaah

#6517
b110110000100000 aaaah

#6519
b10000111000110110111000000 aaaaf

#6538
b110110000100001 aaaah

#6559
b110110000100010 aaaah

#6580
b110110000100011 aaaah

#6601
b110110000100100 aaaah

#6613
b11110000111101111000000 aaaag

#6615
b110110000100101 aaaah

#6629
b110110000100110 aaaah

#6650
b110110000100111 aaaah

#6671
b110110000101000 aaaah

#6685
b110110000101001 aaaah

#6706
b110110000101010 aaaah

#6707
b1100010010101001 aaaaa
b1100000010001011 aaaab
r0.5500511527061462 aaaad
r-12.99557113647461 aaaae

#6727
b110110000101011 aaaah

#6748
b110110000101100 aaaah

#6769
b110110000101101 aaaah

#6790
b110110000101110 aaaah

#6811
b110110000101111 aaaah

#6825
b110110000110000 aaaah

#6846
b110110000110001 aaaah

#6867
b110110000110010 aaaah

#6888
b110110000110011 aaaah

#6895
b10000111001101000011000000 aaaaf

#6909
b110110000110100 aaaah

#6930
b110110000110101 aaaah

#6951
b110110000110110 aaaah

#6958
b110110000110111 aaaah

#6979
b110110000111000 aaaah

#6989
b11110000101011011100000 aaaag

#7000
b110110000111001 aaaah

#7021
b110110000111010 aaaah

#7035
b110110000111011 aaaah

#7056
b110110000111100 aaaah

#7077
b110110000111101 aaaah

#7083
b1100010011001100 aaaaa
b1100000001010000 aaaab
r0.5500547885894775 aaaad
r-12.99535751342773 aaaae

#7098
b110110000111110 aaaah

#7119
b110110000111111 aaaah

#7140
b110110001000000 aaaah

#7161
b110110001000001 aaaah

#7175
b110110001000010 aaaah

#7196
b110110001000011 aaaah

#7217
b110110001000100 aaaah

#7238
b110110001000101 aaaah

#7259
b110110001000110 aaaah

#7271
b10000111010011000100000000 aaaaf

#7280
b110110001000111 aaaah

#7287
b110110001001000 aaaah

#7308
b110110001001001 aaaah

#7329
b110110001001010 aaaah

#7350
b110110001001011 aaaah

#7365
b11110000011001000000000 aaaag

#7371
b110110001001100 aaaah

#7385
b110110001001101 aaaah

#7406
b110110001001110 aaaah

#7427
b110110001001111 aaaah

#7448
b110110001010000 aaaah

#7459
b1100010011101110 aaaaa
b1100000000010011 aaaab
r0.5500584244728088 aaaad
r-12.99514293670654 aaaae

#7469
b110110001010001 aaaah

#7490
b110110001010010 aaaah

#7511
b110110001010011 aaaah

#7525
b110110001010100 aaaah

#7546
b110110001010101 aaaah

#7567
b110110001010110 aaaah

#7588
b110110001010111 aaaah

#7609
b110110001011000 aaaah

#7630
b110110001011001 aaaah

#7637
b110110001011010 aaaah

#7647
b10000111011000111010000000 aaaaf

#7658
b110110001011011 aaaah

#7679
b110110001011100 aaaah

#7700
b110110001011101 aaaah

#7721
b110110001011110 aaaah

#7735
b110110001011111 aaaah

#7741
b11110000000101111100000 aaaag

#7756
b110110001100000 aaaah

#7777
b110110001100001 aaaah

#7798
b110110001100010 aaaah

#7819
b110110001100011 aaaah

#7835
b1100010100010001 aaaaa
b1011111111010101 aaaab
r0.5500620603561401 aaaad
r-12.99492645263672 aaaae

#7840
b110110001100100 aaaah

#7861
b110110001100101 aaaah

#7875
b110110001100110 aaaah

#7896
b110110001100111 aaaah

#7917
b110110001101000 aaaah

#7938
b110110001101001 aaaah

#7959
b110110001101010 aaaah

#7966
b110110001101011 aaaah

#7987
b110110001101100 aaaah

#8008
b110110001101101 aaaah

#8023
b10000111011110111011000000 aaaaf

#8029
b110110001101110 aaaah

#8050
b110110001101111 aaaah

#8071
b110110001110000 aaaah

#8085
b110110001110001 aaaah

#8106
b110110001110010 aaaah

#8117
b11101111110010100100000 aaaag

#8127
b110110001110011 aaaah

#8148
b110110001110100 aaaah

#8169
b110110001110101 aaaah

#8190
b110110001110110 aaaah

#8211
b1100010100110011 aaaaa
b1011111110010111 aaaab
r0.5500657558441162 aaaad
r-12.99470901489258 aaaae
b110110001110111 aaaah

#8225
b110110001111000 aaaah

#8246
b110110001111001 aaaah

#8267
b110110001111010 aaaah

#8288
b110110001111011 aaaah

#8295
b110110001111100 aaaah

#8316
b110110001111101 aaaah

#8337
b110110001111110 aaaah

#8358
b110110001111111 aaaah

#8379
b110110010000000 aaaah

#8399
b10000111100100110001000000 aaaaf

#8400
b110110010000001 aaaah

#8421
b110110010000010 aaaah

#8435
b110110010000011 aaaah

#8456
b110110010000100 aaaah

#8477
b110110010000101 aaaah

#8493
b11101111011111001100000 aaaag

#8498
b110110010000110 aaaah

#8519
b110110010000111 aaaah

#8540
b110110010001000 aaaah

#8561
b110110010001001 aaaah

#8575
b110110010001010 aaaah

#8587
b1100010101011000 aaaaa
b1011111101010110 aaaab
r0.5500694513320923 aaaad
r-12.99449062347412 aaaae

#8596
b110110010001011 aaaah

#8617
b110110010001100 aaaah

#8638
b110110010001101 aaaah

#8645
b110110010001110 aaaah

#8666
b110110010001111 aaaah

#8687
b110110010010000 aaaah

#8708
b110110010010001 aaaah

#8729
b110110010010010 aaaah

#8750
b110110010010011 aaaah

#8771
b110110010010100 aaaah

#8775
b10000111101011001000000000 aaaaf

#8785
b110110010010101 aaaah

#8806
b110110010010110 aaaah

#8827
b110110010010111 aaaah

#8848
b110110010011000 aaaah

#8869
b11101111001010111000000 aaaag
b110110010011001 aaaah

#8890
b110110010011010 aaaah

#8911
b110110010011011 aaaah

#8925
b110110010011100 aaaah

#8946
b110110010011101 aaaah

#8963
b1100010101111010 aaaaa
b1011111100010101 aaaab
r0.5500732064247131 aaaad
r-12.99427127838135 aaaae

#8967
b110110010011110 aaaah

#8981
b110110010011111 aaaah

#8995
b110110010100000 aaaah

#9016
b110110010100001 aaaah

#9037
b110110010100010 aaaah

#9058
b110110010100011 aaaah

#9079
b110110010100100 aaaah

#9100
b110110010100101 aaaah

#9121
b110110010100110 aaaah

#9135
b110110010100111 aaaah

#9151
b10000111110000111110000000 aaaaf

#9156
b110110010101000 aaaah

#9177
b110110010101001 aaaah

#9198
b110110010101010 aaaah

#9219
b110110010101011 aaaah

#9240
b110110010101100 aaaah

#9245
b11101110110110100100000 aaaag

#9261
b110110010101101 aaaah

#9275
b110110010101110 aaaah

#9296
b110110010101111 aaaah

#9317
b110110010110000 aaaah

#9331
b110110010110001 aaaah

#9339
b1100010110011110 aaaaa
b1011111011010011 aaaab
r0.550076961517334 aaaad
r-12.99405002593994 aaaae

#9345
b110110010110010 aaaah

#9366
b110110010110011 aaaah

#9387
b110110010110100 aaaah

#9408
b110110010110101 aaaah

#9429
b110110010110110 aaaah

#9450
b110110010110111 aaaah

#9471
b110110010111000 aaaah

#9485
b110110010111001 aaaah

#9506
b110110010111010 aaaah

#9527
b10000111110111001010000000 aaaaf
b110110010111011 aaaah

#9548
b110110010111100 aaaah

#9569
b110110010111101 aaaah

#9590
b110110010111110 aaaah

#9611
b110110010111111 aaaah

#9621
b11101110100001111100000 aaaag

#9625
b110110011000000 aaaah

#9646
b110110011000001 aaaah

#9667
b110110011000010 aaaah

#9681
b110110011000011 aaaah

#9695
b110110011000100 aaaah

#9715
b1100010111000001 aaaaa
b1011111010001111 aaaab
r0.5500807166099548 aaaad
r-12.99382781982422 aaaae

#9716
b110110011000101 aaaah

#9737
b110110011000110 aaaah

#9758
b110110011000111 aaaah

#9779
b110110011001000 aaaah

#9800
b110110011001001 aaaah

#9821
b110110011001010 aaaah

#9835
b110110011001011 aaaah

#9856
b110110011001100 aaaah

#9877
b110110011001101 aaaah

#9898
b110110011001110 aaaah

#9903
b10000111111101001011000000 aaaaf

#9919
b110110011001111 aaaah

#9940
b110110011010000 aaaah

#9961
b110110011010001 aaaah

#9975
b110110011010010 aaaah

#9996
b110110011010011 aaaah

#9997
b11101110001100101100000 aaaag

#10017
b110110011010100 aaaah

#10031
b110110011010101 aaaah

#10045
b110110011010110 aaaah

#10066
b110110011010111 aaaah

#10087
b110110011011000 aaaah

#10091
b1100010111100101 aaaaa
b1011111001001010 aaaab
r0.5500845313072205 aaaad
r-12.99360466003418 aaaae

#10108
b110110011011001 aaaah

#10129
b110110011011010 aaaah

#10150
b110110011011011 aaaah

#10171
b110110011011100 aaaah

#10185
b110110011011101 aaaah

#10206
b110110011011110 aaaah

#10227
b110110011011111 aaaah

#10248
b110110011100000 aaaah

#10269
b110110011100001 aaaah

#10279
b10001000000011010111000000 aaaaf

#10290
b110110011100010 aaaah

#10311
b110110011100011 aaaah

#10325
b110110011100100 aaaah

#10346
b110110011100101 aaaah

#10360
b110110011100110 aaaah

#10373
b11101101110111001000000 aaaag

#10381
b110110011100111 aaaah

#10395
b110110011101000 aaaah

#10416
b110110011101001 aaaah

#10437
b110110011101010 aaaah

#10458
b110110011101011 aaaah

#10467
b1100011000001000 aaaaa
b1011111000000011 aaaab
r0.5500883460044861 aaaad
r-12.99338054656982 aaaae

#10479
b110110011101100 aaaah

#10500
b110110011101101 aaaah

#10521
b110110011101110 aaaah

#10535
b110110011101111 aaaah

#10556
b110110011110000 aaaah

#10577
b110110011110001 aaaah

#10598
b110110011110010 aaaah

#10619
b110110011110011 aaaah

#10640
b110110011110100 aaaah

#10655
b10001000001001011000000000 aaaaf

#10661
b110110011110101 aaaah

#10675
b110110011110110 aaaah

#10696
b110110011110111 aaaah

#10710
b110110011111000 aaaah

#10731
b110110011111001 aaaah

#10745
b110110011111010 aaaah

#10749
b11101101100000111100000 aaaag

#10766
b110110011111011 aaaah

#10787
b110110011111100 aaaah

#10808
b110110011111101 aaaah

#10829
b110110011111110 aaaah

#10843
b1100011000101010 aaaaa
b1011110110111100 aaaab
r0.5500922203063965 aaaad
r-12.99315452575684 aaaae

#10850
b110110011111111 aaaah

#10871
b110110100000000 aaaah

#10885
b110110100000001 aaaah

#10906
b110110100000010 aaaah

#10927
b110110100000011 aaaah

#10948
b110110100000100 aaaah

#10969
b110110100000101 aaaah

#10990
b110110100000110 aaaah

#11011
b110110100000111 aaaah

#11025
b110110100001000 aaaah

#11031
b10001000001111001110000000 aaaaf

#11046
b110110100001001 aaaah

#11067
b110110100001010 aaaah

#11081
b110110100001011 aaaah

#11095
b110110100001100 aaaah

#11116
b110110100001101 aaaah

#11125
b11101101001010110000000 aaaag

#11137
b110110100001110 aaaah

#11158
b110110100001111 aaaah

#11179
b110110100010000 aaaah

#11200
b110110100010001 aaaah

#11219
b1100011001001101 aaaaa
b1011110101110011 aaaab
r0.5500960946083069 aaaad
r-12.99292755126953 aaaae

#11221
b110110100010010 aaaah

#11235
b110110100010011 aaaah

#11256
b110110100010100 aaaah

#11277
b110110100010101 aaaah

#11298
b110110100010110 aaaah

#11319
b110110100010111 aaaah

#11340
b110110100011000 aaaah

#11361
b110110100011001 aaaah

#11375
b110110100011010 aaaah

#11396
b110110100011011 aaaah

#11407
b10001000010101001111000000 aaaaf

#11417
b110110100011100 aaaah

#11431
b110110100011101 aaaah

#11445
b110110100011110 aaaah

#11466
b110110100011111 aaaah

#11487
b110110100100000 aaaah

#11501
b11101100110011111100000 aaaag

#11508
b110110100100001 aaaah

#11529
b110110100100010 aaaah

#11550
b110110100100011 aaaah

#11571
b110110100100100 aaaah

#11585
b110110100100101 aaaah

#11595
b1100011001110001 aaaaa
b1011110100101000 aaaab
r0.5500999689102173 aaaad
r-12.99269962310791 aaaae

#11606
b110110100100110 aaaah

#11627
b110110100100111 aaaah

#11648
b110110100101000 aaaah

#11669
b110110100101001 aaaah

#11690
b110110100101010 aaaah

#11711
b110110100101011 aaaah

#11725
b110110100101100 aaaah

#11746
b110110100101101 aaaah

#11767
b110110100101110 aaaah

#11781
b110110100101111 aaaah

#11783
b10001000011011011011000000 aaaaf

#11795
b110110100110000 aaaah

#11816
b110110100110001 aaaah

#11837
b110110100110010 aaaah

#11858
b110110100110011 aaaah

#11877
b11101100011100100000000 aaaag

#11879
b110110100110100 aaaah

#11900
b110110100110101 aaaah

#11921
b110110100110110 aaaah

#11935
b110110100110111 aaaah

#11956
b110110100111000 aaaah

#11971
b1100011010010100 aaaaa
b1011110011011100 aaaab
r0.5501039028167725 aaaad
r-12.99246978759766 aaaae

#11977
b110110100111001 aaaah

#11998
b110110100111010 aaaah

#12019
b110110100111011 aaaah

#12040
b110110100111100 aaaah

#12061
b110110100111101 aaaah

#12075
b110110100111110 aaaah

#12096
b110110100111111 aaaah

#12117
b110110101000000 aaaah

#12131
b110110101000001 aaaah

#12145
b110110101000010 aaaah

#12159
b10001000100001011100000000 aaaaf

#12166
b110110101000011 aaaah

#12187
b110110101000100 aaaah

#12208
b110110101000101 aaaah

#12229
b110110101000110 aaaah

#12250
b110110101000111 aaaah

#12253
b11101100000100110000000 aaaag

#12271
b110110101001000 aaaah

#12285
b110110101001001 aaaah

#12306
b110110101001010 aaaah

#12327
b110110101001011 aaaah

#12347
b1100011010110110 aaaaa
b1011110010001111 aaaab
r0.5501078367233276 aaaad
r-12.99223899841309 aaaae

#12348
b110110101001100 aaaah

#12369
b110110101001101 aaaah

#12390
b110110101001110 aaaah

#12411
b110110101001111 aaaah

#12425
b110110101010000 aaaah

#12446
b110110101010001 aaaah

#12467
b110110101010010 aaaah

#12488
b110110101010011 aaaah

#12495
b110110101010100 aaaah

#12516
b110110101010101 aaaah

#12535
b10001000100111010010000000 aaaaf

#12537
b110110101010110 aaaah

#12558
b110110101010111 aaaah

#12579
b110110101011000 aaaah

#12600
b110110101011001 aaaah

#12621
b110110101011010 aaaah

#12629
b11101011101100101100000 aaaag

#12635
b110110101011011 aaaah

#12656
b110110101011100 aaaah

#12677
b110110101011101 aaaah

#12698
b110110101011110 aaaah

#12719
b110110101011111 aaaah

#12723
b1100011011011011 aaaaa
b1011110001000001 aaaab
r0.5501117706298828 aaaad
r-12.9920072555542 aaaae

#12740
b110110101100000 aaaah

#12761
b110110101100001 aaaah

#12775
b110110101100010 aaaah

#12796
b110110101100011 aaaah

#12817
b110110101100100 aaaah

#12838
b110110101100101 aaaah

#12845
b110110101100110 aaaah

#12866
b110110101100111 aaaah

#12887
b110110101101000 aaaah

#12908
b110110101101001 aaaah

#12911
b10001000101101101001000000 aaaaf

#12929
b110110101101010 aaaah

#12950
b110110101101011 aaaah

#12971
b110110101101100 aaaah

#12985
b110110101101101 aaaah

#13005
b11101011010100010100000 aaaag

#13006
b110110101101110 aaaah

#13027
b110110101101111 aaaah

#13048
b110110101110000 aaaah

#13069
b110110101110001 aaaah

#13090
b110110101110010 aaaah

#13099
b1100011011111101 aaaaa
b1011101111110001 aaaab
r0.5501157641410828 aaaad
r-12.991774559021 aaaae

#13111
b110110101110011 aaaah

#13125
b110110101110100 aaaah

#13146
b110110101110101 aaaah

#13167
b110110101110110 aaaah

#13188
b110110101110111 aaaah

#13209
b110110101111000 aaaah

#13216
b110110101111001 aaaah

#13237
b110110101111010 aaaah

#13258
b110110101111011 aaaah

#13279
b110110101111100 aaaah

#13287
b10001000110011011111000000 aaaaf

#13300
b110110101111101 aaaah

#13321
b110110101111110 aaaah

#13335
b110110101111111 aaaah

#13356
b110110110000000 aaaah

#13377
b110110110000001 aaaah

#13381
b11101010111011010100000 aaaag

#13398
b110110110000010 aaaah

#13419
b110110110000011 aaaah

#13440
b110110110000100 aaaah

#13461
b110110110000101 aaaah

#13475
b1100011100100000 aaaaa
b1011101110011111 aaaab
r0.5501197576522827 aaaad
r-12.99153995513916 aaaae
b110110110000110 aaaah

#13496
b110110110000111 aaaah

#13517
b110110110001000 aaaah

#13538
b110110110001001 aaaah

#13559
b110110110001010 aaaah

#13580
b110110110001011 aaaah

#13587
b110110110001100 aaaah

#13608
b110110110001101 aaaah

#13629
b110110110001110 aaaah

#13650
b110110110001111 aaaah

#13663
b10001000111001100000000000 aaaaf

#13671
b110110110010000 aaaah

