Proyecto_2/VERSION_FINAL/estimador.vcd
$date
     Jul 28, 2020       18:13:09
$end

$version
 SystemC 2.3.3-Accellera --- Jul  8 2020 13:01:15
$end

$timescale
     1 ns
$end

$scope module SystemC $end
$var wire   16  aaaaa  adc_v [15:0]  $end
$var wire   16  aaaab  adc_i [15:0]  $end
$var wire    1  aaaac  start       $end
$var wire   32  aaaad  param_1 [31:0]  $end
$var wire   32  aaaae  param_2 [31:0]  $end
$var wire   32  aaaaf  volt [31:0]  $end
$var wire   32  aaaag  current [31:0]  $end
$upscope $end
$enddefinitions  $end

$comment
All initial values are dumped below at time 0 sec = 0 timescale units.
$end

$dumpvars
b0 aaaaa
b0 aaaab
1aaaac
b100011001100110011001 aaaad
b0 aaaae
b0 aaaaf
b0 aaaag
$end

#39
b11111110011000000000101111001000 aaaae

#226
b1100001000110101 aaaaa
b1100001101011110 aaaab
0aaaac
b100011001100110100000 aaaad

#337
b11111110011000000000110101111010 aaaae

#448
b10000101100001000111000000 aaaaf

#559
b11110100001101011000000 aaaag

#670
b1100001010010011 aaaaa
b1100001100110000 aaaab
b100011001100110101000 aaaad

#781
b11111110011000000000111100101100 aaaae

#892
b10000101110001010001000000 aaaaf

#1003
b11110011111111000000000 aaaag

#1114
b1100001011110001 aaaaa
b1100001100000010 aaaab
b100011001100110101111 aaaad

#1225
b11111110011000000001000011100000 aaaae

#1336
b10000110000001011011000000 aaaaf

#1447
b11110011110000101000000 aaaag

#1558
b1100001101001111 aaaaa
b1100001011010011 aaaab
b100011001100110110110 aaaad

#1668
b11111110011000000001001010010100 aaaae

#1779
b10000110010001100101000000 aaaaf

#1889
b11110011100001111100000 aaaag

#2000
b1100001110101100 aaaaa
b1100001010100011 aaaab
b100011001100110111110 aaaad

#2210
b11111110011000000001010001001000 aaaae

#2321
b10000110100001100100000000 aaaaf

#2431
b11110011010010111100000 aaaag

