Proyecto_2/Modelo_Funcional/cpu.vcd
$date
     Jul 28, 2020       11:36:16
$end

$version
 SystemC 2.3.3-Accellera --- Jul  8 2020 13:01:15
$end

$timescale
     1 ns
$end

$scope module SystemC $end
$var real    1  aaaaa  param_1       $end
$var real    1  aaaab  param_2       $end
$var real    1  aaaac  volt       $end
$var real    1  aaaad  current       $end
$upscope $end
$enddefinitions  $end

$comment
All initial values are dumped below at time 0 sec = 0 timescale units.
$end

$dumpvars
r0 aaaaa
r0 aaaab
r0 aaaac
r0 aaaad
$end

#1488
r0.5500102043151855 aaaaa

#1632
r-12.99772834777832 aaaab

#1788
r17.06698608398438 aaaac

#1932
r3.769454956054688 aaaad

#2088
r0.5500173568725586 aaaaa

#2232
r-12.99730587005615 aaaab

#2388
r17.25497436523438 aaaac

#2532
r3.741989135742188 aaaad

#2688
r0.5500249862670898 aaaaa

#2832
r-12.99688148498535 aaaab

#2988
r17.44195556640625 aaaac

#3132
r3.711166381835938 aaaad

#3288
r0.5500321388244629 aaaaa

#3432
r-12.9964542388916 aaaab

#3588
r17.6279296875 aaaac

#3732
r3.676834106445312 aaaad

#3888
r0.5500397682189941 aaaaa

#4032
r-12.9960241317749 aaaab

#4188
r17.81289672851562 aaaac

#4332
r3.638458251953125 aaaad

