Proyecto_2/Modelo_Funcional/estimador.vcd
$date
     Jul 28, 2020       11:36:16
$end

$version
 SystemC 2.3.3-Accellera --- Jul  8 2020 13:01:15
$end

$timescale
     1 ns
$end

$scope module SystemC $end
$var wire   16  aaaaa  adc_v [15:0]  $end
$var wire   16  aaaab  adc_i [15:0]  $end
$var wire    1  aaaac  start       $end
$var wire   32  aaaad  param_1 [31:0]  $end
$var wire   32  aaaae  param_2 [31:0]  $end
$var wire   32  aaaaf  volt [31:0]  $end
$var wire   32  aaaag  current [31:0]  $end
$upscope $end
$enddefinitions  $end

$comment
All initial values are dumped below at time 0 sec = 0 timescale units.
$end

$dumpvars
b0 aaaaa
b0 aaaab
1aaaac
b100011001100110011001 aaaad
b0 aaaae
b0 aaaaf
b0 aaaag
$end

#33
b11111110011000000000101111001000 aaaae

#261
b1100001000110101 aaaaa
b1100001101011110 aaaab
0aaaac
b100011001100110100000 aaaad

#337
b11111110011000000000110101111010 aaaae

#361
b1100001010010011 aaaaa
b1100001100110000 aaaab

#413
b10000101100001000111000000 aaaaf

#461
b1100001011110001 aaaaa
b1100001100000010 aaaab

#489
b11110100001101011000000 aaaag

#561
b1100001101001111 aaaaa
b1100001011010011 aaaab

#661
b1100001110101100 aaaaa
b1100001010100011 aaaab
b100011001100110101000 aaaad

#737
b11111110011000000000111100101110 aaaae

#761
b1100010000001010 aaaaa
b1100001001110010 aaaab

#813
b10000110100001100100000000 aaaaf

#861
b1100010001101000 aaaaa
b1100001001000000 aaaab

#889
b11110011010010111100000 aaaag

#961
b1100010011000101 aaaaa
b1100001000001101 aaaab

#1061
b1100010100100011 aaaaa
b1100000111011001 aaaab
b100011001100110101111 aaaad

#1137
b11111110011000000001000011100100 aaaae

#1161
b1100010110000000 aaaaa
b1100000110100100 aaaab

#1213
b10000111100010000001000000 aaaaf

#1261
b1100010111011110 aaaaa
b1100000101101110 aaaab

#1289
b11110010010011110100000 aaaag

#1361
b1100011000111100 aaaaa
b1100000100110111 aaaab

#1461
b1100011010011001 aaaaa
b1100000011111111 aaaab
b100011001100110110111 aaaad

#1532
b11111110011000000001001010011100 aaaae

#1561
b1100011011110110 aaaaa
b1100000011000110 aaaab

#1605
b10001000100010010011000000 aaaaf

#1661
b1100011101010100 aaaaa
b1100000010001011 aaaab

#1676
b11110001001111101100000 aaaag

#1761
b1100011110110001 aaaaa
b1100000001010000 aaaab
b100011001100110111110 aaaad

#1832
b11111110011000000001010001010110 aaaae

#1861
b1100100000001110 aaaaa
b1100000000010011 aaaab

#1905
b10001001010010011011000000 aaaaf

#1961
b1100100001101100 aaaaa
b1011111111010101 aaaab

#1976
b11110000011001000000000 aaaag

#2061
b1100100011001001 aaaaa
b1011111110010111 aaaab
b100011001100111000110 aaaad

#2132
b11111110011000000001011000010010 aaaae

#2161
b1100100100100110 aaaaa
b1011111101010110 aaaab

#2205
b10001010000010100011000000 aaaaf

#2261
b1100100110000011 aaaaa
b1011111100010101 aaaab

#2276
b11101111011111001100000 aaaag

#2361
b1100100111100000 aaaaa
b1011111011010011 aaaab
b100011001100111001110 aaaad

#2432
b11111110011000000001011111001110 aaaae

#2461
b1100101000111101 aaaaa
b1011111010001111 aaaab

#2505
b10001010110010100000000000 aaaaf

#2561
b1100101010011001 aaaaa
b1011111001001010 aaaab

#2576
b11101110100001111100000 aaaag

#2661
b1100101011110110 aaaaa
b1011111000000011 aaaab
b100011001100111010101 aaaad

#2732
b11111110011000000001100110001100 aaaae

#2761
b1100101101010011 aaaaa
b1011110110111100 aaaab

#2805
b10001011100010010010000000 aaaaf

#2861
b1100101110101111 aaaaa
b1011110101110011 aaaab

#2876
b11101101100000111100000 aaaag

#2961
b1100110000001100 aaaaa
b1011110100101000 aaaab
b100011001100111011101 aaaad

#3032
b11111110011000000001101101001100 aaaae

#3061
b1100110001101000 aaaaa
b1011110011011100 aaaab

#3105
b10001100010010000100000000 aaaaf

#3161
b1100110011000100 aaaaa
b1011110010001111 aaaab

#3176
b11101100011100100000000 aaaag

#3261
b1100110100100000 aaaaa
b1011110001000001 aaaab
b100011001100111100101 aaaad

#3332
b11111110011000000001110100001100 aaaae

#3361
b1100110101111100 aaaaa
b1011101111110001 aaaab

#3405
b10001101000001100000000000 aaaaf

#3461
b1100110111011000 aaaaa
b1011101110011111 aaaab

#3476
b11101011010100010100000 aaaag

#3561
b1100111000110100 aaaaa
b1011101101001100 aaaab
b100011001100111101101 aaaad

#3632
b11111110011000000001111011001110 aaaae

#3661
b1100111010010000 aaaaa
b1011101011111000 aaaab

#3705
b10001101110000111100000000 aaaaf

#3761
b1100111011101011 aaaaa
b1011101010100010 aaaab

#3776
b11101010000111110000000 aaaag

#3861
b1100111101000111 aaaaa
b1011101001001010 aaaab
b100011001100111110101 aaaad

#3932
b11111110011000000010000010010010 aaaae

#3961
b1100111110100010 aaaaa
b1011100111110001 aaaab

#4005
b10001110100000001101000000 aaaaf

#4061
b1100111111111101 aaaaa
b1011100110010111 aaaab

#4076
b11101000110111001000000 aaaag

#4161
b1101000001011000 aaaaa
b1011100100111010 aaaab
b100011001100111111101 aaaad

#4232
b11111110011000000010001001010110 aaaae

