Proyecto_2/CPU/cpu.vcd
$date
     Jul 27, 2020       00:45:11
$end

$version
 SystemC 2.3.3-Accellera --- Jul 25 2020 18:50:59
$end

$timescale
     1 ns
$end

$scope module SystemC $end
$var wire   32  aaaaa  P_Data [31:0]  $end
$var wire   32  aaaab  P_Addr [31:0]  $end
$var wire    1  aaaac  P_Rd_Wr       $end
$upscope $end
$enddefinitions  $end

$comment
All initial values are dumped below at time 0 sec = 0 timescale units.
$end

$dumpvars
b101 aaaaa
b1000011110000000000000000100000 aaaab
1aaaac
$end

#175
b10110 aaaaa
b1000011110000000000000000100100 aaaab

#350
b11 aaaaa
b1000011110000000000000000101000 aaaab

#525
b0 aaaaa
b1000011110000000000000000101100 aaaab

#700
b1000011110000000000000000110000 aaaab

#875
b1000011110000000000000000111000 aaaab

#1050
b1100100 aaaaa
b1000011110000000000000001000000 aaaab

#1225
b0 aaaaa
b1000011110000000000000001001000 aaaab

#1400
b11111111111111111111111111110011 aaaaa
b1000011110000000000000001010000 aaaab

#1575
b0 aaaaa
b1000011110000000000000001011000 aaaab

#1750
b1 aaaaa
b1000011110000000000000001100000 aaaab

#1925
b10101010101010101010101010101010 aaaaa
b1000011110000000000000000010000 aaaab

#2100
b10111011101110111011101110111011 aaaaa
b1000011110000000000000000010100 aaaab

#2275
b11001100110011001100110011001100 aaaaa
b1000011110000000000000000011000 aaaab

#2450
b11011101110111011101110111011101 aaaaa
b1000011110000000000000000011100 aaaab

#2625
b1000011110000000000000000010000 aaaab
0aaaac

#2795
b10101010101010101010101010101010 aaaaa
b1010000000000000000000000000 aaaab
1aaaac

#2970
b1000011110000000000000000010100 aaaab
0aaaac

#3140
b10111011101110111011101110111011 aaaaa
b1010000000000000000000000001 aaaab
1aaaac

#3315
b1000011110000000000000000011000 aaaab
0aaaac

#3485
b11001100110011001100110011001100 aaaaa
b1010000000000000000000000010 aaaab
1aaaac

#3660
b1000011110000000000000000011100 aaaab
0aaaac

#3830
b11011101110111011101110111011101 aaaaa
b1010000000000000000000000011 aaaab
1aaaac

