Proyecto_1/Modulo_cache/CACHE/at/cache.vcd
$date
     Jul 07, 2020       11:42:17
$end

$version
 SystemC 2.3.2-Accellera --- Jun 15 2020 10:33:26
$end

$timescale
     1 ns
$end

$scope module SystemC $end
$var wire    1  aaaaa  rst       $end
$var wire    1  aaaab  flag       $end
$var wire   32  aaaac  data [31:0]  $end
$var wire   32  aaaad  address [31:0]  $end
$var wire    2  aaaae  Fun [1:0]  $end
$var wire   32  aaaaf  0_MemAdd [31:0]  $end
$var wire   32  aaaag  0_MemDat [31:0]  $end
$var wire   32  aaaah  1_MemAdd [31:0]  $end
$var wire   32  aaaai  1_MemDat [31:0]  $end
$var wire   32  aaaaj  2_MemAdd [31:0]  $end
$var wire   32  aaaak  2_MemDat [31:0]  $end
$var wire    1  aaaal  zclk       $end
$upscope $end
$enddefinitions  $end

$comment
All initial values are dumped below at time 0 sec = 0 timescale units.
$end

$dumpvars
0aaaaa
0aaaab
b110011 aaaac
b11 aaaad
b1 aaaae
b0 aaaaf
b0 aaaag
b0 aaaah
b0 aaaai
b0 aaaaj
b0 aaaak
1aaaal
$end

#5
0aaaal

#8
b11 aaaaf
b110011 aaaag

#10
1aaaal

#15
0aaaal

#20
b100010 aaaac
b10 aaaad
1aaaal

#25
0aaaal

#28
b10 aaaah
b100010 aaaai

#30
1aaaal

#35
0aaaal

#40
b1100110 aaaac
b101 aaaad
1aaaal

#45
0aaaal

#48
b101 aaaaj
b1100110 aaaak

#50
1aaaal

#55
0aaaal

#60
b0 aaaac
b10 aaaad
b11 aaaae
1aaaal

#65
0aaaal

#68
b100010 aaaac

#70
1aaaal

#75
0aaaal

#80
b0 aaaac
b1 aaaad
1aaaal

#85
0aaaal

#88
1aaaab

#90
1aaaal

#95
0aaaal

#100
b10001 aaaac
b1 aaaae
1aaaal

#105
0aaaal

#108
b1 aaaaf
b10001 aaaag

#110
1aaaal

#115
0aaaal

#120
b0 aaaac
b101 aaaad
b11 aaaae
1aaaal

#125
0aaaal

#128
0aaaab
b1100110 aaaac

#130
1aaaal

#135
0aaaal

#140
b11111111 aaaac
b1011101 aaaad
b1 aaaae
1aaaal

#145
0aaaal

#148
b1011101 aaaah
b11111111 aaaai

#150
1aaaal

#155
0aaaal

#160
b0 aaaac
b10 aaaad
b11 aaaae
1aaaal

#165
0aaaal

#168
1aaaab

