Proyecto_2/Router_Cache_Mem/cpu.vcd
$date
     Jul 27, 2020       23:22:42
$end

$version
 SystemC 2.3.3-Accellera --- Jul  8 2020 13:01:15
$end

$timescale
     1 ns
$end

$scope module SystemC $end
$var real    1  aaaaa  param_1       $end
$var real    1  aaaab  param_2       $end
$var real    1  aaaac  volt       $end
$var real    1  aaaad  current       $end
$upscope $end
$enddefinitions  $end

$comment
All initial values are dumped below at time 0 sec = 0 timescale units.
$end

$dumpvars
r0 aaaaa
r0 aaaab
r0 aaaac
r0 aaaad
$end

#6162
r0.5500102043151855 aaaaa

#6984
r-12.99794006347656 aaaab

#7806
r16.78433227539062 aaaac

#8628
r3.805160522460938 aaaad

#9450
r0.5500173568725586 aaaaa

#10272
r-12.99752426147461 aaaab

#11094
r16.84710693359375 aaaac

#11916
r3.797760009765625 aaaad

#12738
r0.5500240325927734 aaaaa

#13560
r-12.99710750579834 aaaab

#14382
r16.90988159179688 aaaac

#15204
r3.790054321289062 aaaad

#16026
r0.5500311851501465 aaaaa

#16848
r-12.99668979644775 aaaab

#17670
r16.97265625 aaaac

#18492
r3.78204345703125 aaaad

#19314
r0.5500383377075195 aaaaa

#20136
r-12.99627208709717 aaaab

#20958
r17.0357666015625 aaaac

#21780
r3.773727416992188 aaaad

#22602
r0.5500454902648926 aaaaa

#23424
r-12.99585247039795 aaaab

#24246
r17.09820556640625 aaaac

#25068
r3.765106201171875 aaaad

#25890
r0.5500526428222656 aaaaa

#26712
r-12.99543285369873 aaaab

#27534
r17.16098022460938 aaaac

#28356
r3.756103515625 aaaad

#29178
r0.5500597953796387 aaaaa

#30000
r-12.99501132965088 aaaab

#30822
r17.2237548828125 aaaac

#31644
r3.746719360351562 aaaad

#32466
r0.5500674247741699 aaaaa

#33288
r-12.99458980560303 aaaab

#34110
r17.28619384765625 aaaac

#34932
r3.737030029296875 aaaad

#35754
r0.550074577331543 aaaaa

#36576
r-12.99416732788086 aaaab

#37398
r17.3486328125 aaaac

#38220
r3.727035522460938 aaaad

#39042
r0.550081729888916 aaaaa

#39864
r-12.99374389648438 aaaab

#40686
r17.41073608398438 aaaac

#41508
r3.716583251953125 aaaad

#42330
r0.5500893592834473 aaaaa

#43152
r-12.99332046508789 aaaab

#43974
r17.47317504882812 aaaac

#44796
r3.70574951171875 aaaad

#45618
r0.5500965118408203 aaaaa

#46440
r-12.99289512634277 aaaab

#47262
r17.5352783203125 aaaac

#48084
r3.6944580078125 aaaad

#48906
r0.5501041412353516 aaaaa

#49728
r-12.99246978759766 aaaab

#50550
r17.5970458984375 aaaac

#51372
r3.682785034179688 aaaad

#52194
r0.5501117706298828 aaaaa

#53016
r-12.99204254150391 aaaab

#53838
r17.6588134765625 aaaac

#54660
r3.670730590820312 aaaad

#55482
r0.5501194000244141 aaaaa

#56304
r-12.99161529541016 aaaab

#57126
r17.7205810546875 aaaac

#57948
r3.65814208984375 aaaad

#58770
r0.5501270294189453 aaaaa

#59592
r-12.99118709564209 aaaab

#60414
r17.78201293945312 aaaac

#61236
r3.645172119140625 aaaad

#62058
r0.5501346588134766 aaaaa

#62880
r-12.99075794219971 aaaab

#63702
r17.84344482421875 aaaac

#64524
r3.631668090820312 aaaad

#65346
r0.5501422882080078 aaaaa

#66168
r-12.99032878875732 aaaab

#66990
r17.904541015625 aaaac

#67812
r3.617706298828125 aaaad

#68634
r0.5501499176025391 aaaaa

#69456
r-12.98989772796631 aaaab

#70278
r17.96563720703125 aaaac

#71100
r3.603286743164062 aaaad

#71922
r0.5501575469970703 aaaaa

#72744
r-12.98946666717529 aaaab

#73566
r18.02606201171875 aaaac

#74388
r3.588333129882812 aaaad

#75210
r0.5501651763916016 aaaaa

#76032
r-12.98903369903564 aaaab

#76854
r18.08682250976562 aaaac

#77676
r3.572845458984375 aaaad

#78498
r0.550173282623291 aaaaa

#79320
r-12.988600730896 aaaab

#80142
r18.14691162109375 aaaac

#80964
r3.55682373046875 aaaad

#81786
r0.5501809120178223 aaaaa

#82608
r-12.98816680908203 aaaab

#83430
r18.20700073242188 aaaac

#84252
r3.540267944335938 aaaad

#85074
r0.5501890182495117 aaaaa

#85896
r-12.98773193359375 aaaab

#86718
r18.26708984375 aaaac

#87540
r3.523101806640625 aaaad

#88362
r0.5501971244812012 aaaaa

#89184
r-12.98729705810547 aaaab

#90006
r18.32650756835938 aaaac

#90828
r3.505401611328125 aaaad

#91650
r0.5502052307128906 aaaaa

#92472
r-12.98686027526855 aaaab

#93294
r18.38592529296875 aaaac

#94116
r3.487091064453125 aaaad

#94938
r0.5502128601074219 aaaaa

#95760
r-12.98642349243164 aaaab

#96582
r18.44500732421875 aaaac

#97404
r3.468170166015625 aaaad

#98226
r0.5502209663391113 aaaaa

#99048
r-12.98598575592041 aaaab

#99870
r18.50375366210938 aaaac

#100692
r3.448638916015625 aaaad

#101514
r0.5502290725708008 aaaaa

#102336
r-12.98554706573486 aaaab

#103158
r18.56216430664062 aaaac

#103980
r3.428497314453125 aaaad

#104802
r0.5502376556396484 aaaaa

#105624
r-12.98510837554932 aaaab

#106446
r18.62057495117188 aaaac

#107268
r3.407669067382812 aaaad

#108090
r0.5502457618713379 aaaaa

#108912
r-12.98466777801514 aaaab

#109734
r18.67831420898438 aaaac

#110556
r3.38623046875 aaaad

#111378
r0.5502538681030273 aaaaa

#112200
r-12.98422718048096 aaaab

#113022
r18.73605346679688 aaaac

#113844
r3.364105224609375 aaaad

#114666
r0.5502619743347168 aaaaa

#115488
r-12.98378562927246 aaaab

#116310
r18.79312133789062 aaaac

#117132
r3.341293334960938 aaaad

#117954
r0.5502705574035645 aaaaa

#118776
r-12.98334312438965 aaaab

#119598
r18.85018920898438 aaaac

#120420
r3.317794799804688 aaaad

#121242
r0.5502786636352539 aaaaa

#122064
r-12.98290061950684 aaaab

#122886
r18.90658569335938 aaaac

#123708
r3.293609619140625 aaaad

#124530
r0.5502872467041016 aaaaa

#125352
r-12.98245716094971 aaaab

#126174
r18.96298217773438 aaaac

#126996
r3.268661499023438 aaaad

#127818
r0.5502958297729492 aaaaa

#128640
r-12.98201274871826 aaaab

#129462
r19.01870727539062 aaaac

#130284
r3.243026733398438 aaaad

#131106
r0.5503039360046387 aaaaa

#131928
r-12.98156833648682 aaaab

#132750
r19.07443237304688 aaaac

#133572
r3.216705322265625 aaaad

#134394
r0.5503125190734863 aaaaa

#135216
r-12.98112201690674 aaaab

#136038
r19.12948608398438 aaaac

#136860
r3.189544677734375 aaaad

#137682
r0.550321102142334 aaaaa

#138504
r-12.98067569732666 aaaab

#139326
r19.1842041015625 aaaac

#140148
r3.161697387695312 aaaad

#140970
r0.5503296852111816 aaaaa

#141792
r-12.98022842407227 aaaab

#142614
r19.23858642578125 aaaac

#143436
r3.133087158203125 aaaad

#144258
r0.5503382682800293 aaaaa

#145080
r-12.97978019714355 aaaab

#145902
r19.29263305664062 aaaac

#146724
r3.103713989257812 aaaad

#147546
r0.550346851348877 aaaaa

#148368
r-12.97933197021484 aaaab

#149190
r19.34600830078125 aaaac

#150012
r3.073577880859375 aaaad

#150834
r0.5503559112548828 aaaaa

#151656
r-12.97888278961182 aaaab

#152478
r19.39938354492188 aaaac

#153300
r3.0426025390625 aaaad

#154122
r0.5503644943237305 aaaaa

#154944
r-12.97843265533447 aaaab

#155766
r19.45208740234375 aaaac

#156588
r3.0108642578125 aaaad

#157410
r0.5503730773925781 aaaaa

#158232
r-12.97798252105713 aaaab

#159054
r19.50411987304688 aaaac

#159876
r2.978363037109375 aaaad

#160698
r0.550382137298584 aaaaa

#161520
r-12.97753143310547 aaaab

#162342
r19.55615234375 aaaac

#163164
r2.945098876953125 aaaad

#163986
r0.5503907203674316 aaaaa

#164808
r-12.97707939147949 aaaab

#165630
r19.60751342773438 aaaac

#166452
r2.910995483398438 aaaad

#167274
r0.5503997802734375 aaaaa

#168096
r-12.97662734985352 aaaab

#168918
r19.658203125 aaaac

#169740
r2.876129150390625 aaaad

#170562
r0.5504088401794434 aaaaa

#171384
r-12.97617435455322 aaaab

#172206
r19.70855712890625 aaaac

#173028
r2.840423583984375 aaaad

#173850
r0.550417423248291 aaaaa

#174672
r-12.97572040557861 aaaab

#175494
r19.75857543945312 aaaac

#176316
r2.804031372070312 aaaad

#177138
r0.5504264831542969 aaaaa

#177960
r-12.975266456604 aaaab

#178782
r19.80825805664062 aaaac

#179604
r2.7667236328125 aaaad

#180426
r0.5504355430603027 aaaaa

#181248
r-12.97481155395508 aaaab

#182070
r19.85726928710938 aaaac

#182892
r2.728729248046875 aaaad

#183714
r0.5504446029663086 aaaaa

#184536
r-12.97435569763184 aaaab

#185358
r19.90560913085938 aaaac

#186180
r2.689895629882812 aaaad

#187002
r0.5504536628723145 aaaaa

#187824
r-12.97389984130859 aaaab

#188646
r19.95361328125 aaaac

#189468
r2.650375366210938 aaaad

#190290
r0.5504627227783203 aaaaa

#191112
r-12.97344303131104 aaaab

#191934
r20.00094604492188 aaaac

#192756
r2.610015869140625 aaaad

#193578
r0.5504722595214844 aaaaa

#194400
r-12.97298526763916 aaaab

#195222
r20.04794311523438 aaaac

#196044
r2.5689697265625 aaaad

#196866
r0.5504813194274902 aaaaa

#197688
r-12.97252750396729 aaaab

#198510
r20.09426879882812 aaaac

#199332
r2.52716064453125 aaaad

#200154
r0.5504903793334961 aaaaa

#200976
r-12.97206974029541 aaaab

#201798
r20.1402587890625 aaaac

#202620
r2.484588623046875 aaaad

#203442
r0.5504999160766602 aaaaa

#204264
r-12.9716100692749 aaaab

#205086
r20.18557739257812 aaaac

#205908
r2.441329956054688 aaaad

#206730
r0.550508975982666 aaaaa

#207552
r-12.97115039825439 aaaab

#208374
r20.230224609375 aaaac

#209196
r2.397384643554688 aaaad

#210018
r0.5505185127258301 aaaaa

#210840
r-12.97069072723389 aaaab

#211662
r20.2745361328125 aaaac

#212484
r2.352752685546875 aaaad

#213306
r0.5505275726318359 aaaaa

#214128
r-12.97023010253906 aaaab

#214950
r20.31817626953125 aaaac

#215772
r2.307510375976562 aaaad

#216594
r0.550537109375 aaaaa

#217416
r-12.96976852416992 aaaab

#218238
r20.36114501953125 aaaac

#219060
r2.261581420898438 aaaad

#219882
r0.5505466461181641 aaaaa

#220704
r-12.96930694580078 aaaab

#221526
r20.40377807617188 aaaac

#222348
r2.215118408203125 aaaad

#223170
r0.5505557060241699 aaaaa

#223992
r-12.96884536743164 aaaab

#224814
r20.44573974609375 aaaac

#225636
r2.16796875 aaaad

#226458
r0.550565242767334 aaaaa

#227280
r-12.96838283538818 aaaab

#228102
r20.48703002929688 aaaac

#228924
r2.120361328125 aaaad

#229746
r0.550574779510498 aaaaa

#230568
r-12.96791934967041 aaaab

#231390
r20.52764892578125 aaaac

#232212
r2.0721435546875 aaaad

#233034
r0.5505843162536621 aaaaa

#233856
r-12.96745586395264 aaaab

#234678
r20.56793212890625 aaaac

#235500
r2.023468017578125 aaaad

#236322
r0.5505938529968262 aaaaa

#237144
r-12.96699237823486 aaaab

#237966
r20.60720825195312 aaaac

#238788
r1.974334716796875 aaaad

#239610
r0.5506033897399902 aaaaa

#240432
r-12.96652793884277 aaaab

#241254
r20.64614868164062 aaaac

#242076
r1.92474365234375 aaaad

#242898
r0.5506129264831543 aaaaa

#243720
r-12.96606254577637 aaaab

#244542
r20.68441772460938 aaaac

#245364
r1.874771118164062 aaaad

#246186
r0.5506224632263184 aaaaa

#247008
r-12.96559715270996 aaaab

#247830
r20.72201538085938 aaaac

#248652
r1.824493408203125 aaaad

#249474
r0.5506324768066406 aaaaa

#250296
r-12.96513175964355 aaaab

#251118
r20.75894165039062 aaaac

#251940
r1.773834228515625 aaaad

#252762
r0.5506420135498047 aaaaa

#253584
r-12.96466636657715 aaaab

#254406
r20.79519653320312 aaaac

#255228
r1.722946166992188 aaaad

#256050
r0.5506515502929688 aaaaa

#256872
r-12.96419906616211 aaaab

#257694
r20.83111572265625 aaaac

#258516
r1.6717529296875 aaaad

#259338
r0.550661563873291 aaaaa

#260160
r-12.96373176574707 aaaab

#260982
r20.86602783203125 aaaac

#261804
r1.6204833984375 aaaad

#262626
r0.5506711006164551 aaaaa

#263448
r-12.96326446533203 aaaab

#264270
r20.90060424804688 aaaac

#265092
r1.568984985351562 aaaad

#265914
r0.5506811141967773 aaaaa

#266736
r-12.96279716491699 aaaab

#267558
r20.93417358398438 aaaac

#268380
r1.517410278320312 aaaad

#269202
r0.5506906509399414 aaaaa

#270024
r-12.96232986450195 aaaab

#270846
r20.96707153320312 aaaac

#271668
r1.465835571289062 aaaad

#272490
r0.5507006645202637 aaaaa

#273312
r-12.96186065673828 aaaab

#274134
r20.9996337890625 aaaac

#274956
r1.414260864257812 aaaad

#275778
r0.5507102012634277 aaaaa

#276600
r-12.96139144897461 aaaab

#277422
r21.03118896484375 aaaac

#278244
r1.362762451171875 aaaad

#279066
r0.55072021484375 aaaaa

#279888
r-12.96092224121094 aaaab

#280710
r21.06240844726562 aaaac

#281532
r1.31134033203125 aaaad

#282354
r0.5507302284240723 aaaaa

#283176
r-12.96045303344727 aaaab

#283998
r21.09262084960938 aaaac

#284820
r1.26007080078125 aaaad

#285642
r0.5507402420043945 aaaaa

#286464
r-12.95998382568359 aaaab

#287286
r21.12216186523438 aaaac

#288108
r1.2091064453125 aaaad

#288930
r0.5507497787475586 aaaaa

#289752
r-12.95951461791992 aaaab

#290574
r21.15103149414062 aaaac

#291396
r1.158370971679688 aaaad

#292218
r0.5507597923278809 aaaaa

#293040
r-12.95904350280762 aaaab

#293862
r21.17922973632812 aaaac

#294684
r1.108016967773438 aaaad

#295506
r0.5507698059082031 aaaaa

#296328
r-12.95857238769531 aaaab

#297150
r21.20675659179688 aaaac

#297972
r1.05804443359375 aaaad

#298794
r0.5507798194885254 aaaaa

#299616
r-12.95810127258301 aaaab

#300438
r21.23361206054688 aaaac

#301260
r1.008529663085938 aaaad

#302082
r0.5507898330688477 aaaaa

#302904
r-12.9576301574707 aaaab

#303726
r21.25979614257812 aaaac

#304548
r0.9595489501953125 aaaad

#305370
r0.5507998466491699 aaaaa

#306192
r-12.9571590423584 aaaab

#307014
r21.28497314453125 aaaac

#307836
r0.9111785888671875 aaaad

#308658
r0.5508098602294922 aaaaa

#309480
r-12.95668792724609 aaaab

#310302
r21.309814453125 aaaac

#311124
r0.8634185791015625 aaaad

#311946
r0.5508198738098145 aaaaa

#312768
r-12.95621681213379 aaaab

#313590
r21.33364868164062 aaaac

#314412
r0.81634521484375 aaaad

#315234
r0.5508298873901367 aaaaa

#316056
r-12.95574474334717 aaaab

#316878
r21.3568115234375 aaaac

#317700
r0.770111083984375 aaaad

#318522
r0.5508403778076172 aaaaa

#319344
r-12.95527172088623 aaaab

#320166
r21.37896728515625 aaaac

#320988
r0.724639892578125 aaaad

#321810
r0.5508503913879395 aaaaa

#322632
r-12.95479869842529 aaaab

#323454
r21.40078735351562 aaaac

#324276
r0.680084228515625 aaaad

#325098
r0.5508604049682617 aaaaa

#325920
r-12.95432567596436 aaaab

#326742
r21.42160034179688 aaaac

#327564
r0.6365203857421875 aaaad

#328386
r0.550870418548584 aaaaa

#329208
r-12.95385265350342 aaaab

#330030
r21.44207763671875 aaaac

#330852
r0.5938720703125 aaaad

#331674
r0.5508809089660645 aaaaa

#332496
r-12.95337963104248 aaaab

#333318
r21.4615478515625 aaaac

#334140
r0.5523681640625 aaaad

#334962
r0.5508909225463867 aaaaa

#335784
r-12.95290660858154 aaaab

#336606
r21.48001098632812 aaaac

#337428
r0.5120086669921875 aaaad

#338250
r0.550900936126709 aaaaa

#339072
r-12.95243358612061 aaaab

#339894
r21.49813842773438 aaaac

#340716
r0.4727935791015625 aaaad

#341538
r0.5509109497070312 aaaaa

#342360
r-12.95196056365967 aaaab

#343182
r21.5152587890625 aaaac

#344004
r0.4347991943359375 aaaad

#344826
r0.5509214401245117 aaaaa

#345648
r-12.95148754119873 aaaab

#346470
r21.53170776367188 aaaac

#347292
r0.3981781005859375 aaaad

#348114
r0.550931453704834 aaaaa

#348936
r-12.95101451873779 aaaab

#349758
r21.54714965820312 aaaac

#350580
r0.36285400390625 aaaad

#351402
r0.5509419441223145 aaaaa

#352224
r-12.95054149627686 aaaab

#353046
r21.562255859375 aaaac

#353868
r0.3289794921875 aaaad

#354690
r0.5509519577026367 aaaaa

#355512
r-12.95006847381592 aaaab

#356334
r21.57635498046875 aaaac

#357156
r0.2965545654296875 aaaad

#357978
r0.5509624481201172 aaaaa

#358800
r-12.94959545135498 aaaab

#359622
r21.58944702148438 aaaac

#360444
r0.265655517578125 aaaad

#361266
r0.5509724617004395 aaaaa

#362088
r-12.94912242889404 aaaab

#362910
r21.60220336914062 aaaac

#363732
r0.2362823486328125 aaaad

#364554
r0.5509829521179199 aaaaa

#365376
r-12.94864940643311 aaaab

#366198
r21.61395263671875 aaaac

#367020
r0.2085113525390625 aaaad

#367842
r0.5509929656982422 aaaaa

#368664
r-12.94817638397217 aaaab

#369486
r21.62503051757812 aaaac

#370308
r0.1824188232421875 aaaad

#371130
r0.5510034561157227 aaaaa

#371952
r-12.9477014541626 aaaab

#372774
r21.63510131835938 aaaac

#373596
r0.157928466796875 aaaad

#374418
r0.5510134696960449 aaaaa

#375240
r-12.94722652435303 aaaab

#376062
r21.64450073242188 aaaac

#376884
r0.1352691650390625 aaaad

#377706
r0.5510239601135254 aaaaa

#378528
r-12.94675159454346 aaaab

#379350
r21.65322875976562 aaaac

#380172
r0.114288330078125 aaaad

#380994
r0.5510339736938477 aaaaa

#381816
r-12.94627666473389 aaaab

#382638
r21.66128540039062 aaaac

#383460
r0.0951385498046875 aaaad

#384282
r0.5510444641113281 aaaaa

#385104
r-12.94580364227295 aaaab

#385926
r21.6683349609375 aaaac

#386748
r0.07781982421875 aaaad

#387570
r0.5510544776916504 aaaaa

#388392
r-12.94533061981201 aaaab

#389214
r21.67471313476562 aaaac

#390036
r0.0623321533203125 aaaad

#390858
r0.5510649681091309 aaaaa

#391680
r-12.94485759735107 aaaab

#392502
r21.68008422851562 aaaac

#393324
r0.0487518310546875 aaaad

#394146
r0.5510749816894531 aaaaa

#394968
r-12.94438457489014 aaaab

#395790
r21.68478393554688 aaaac

#396612
r0.037078857421875 aaaad

#397434
r0.5510854721069336 aaaaa

#398256
r-12.9439115524292 aaaab

#399078
r21.68881225585938 aaaac

#399900
r0.027313232421875 aaaad

#400722
r0.5510954856872559 aaaaa

#401544
r-12.94343852996826 aaaab

#402366
r21.69183349609375 aaaac

#403188
r0.0194549560546875 aaaad

#404010
r0.5511059761047363 aaaaa

#404832
r-12.94296550750732 aaaab

#405654
r21.69451904296875 aaaac

#406476
r0.013580322265625 aaaad

#407298
r0.5511159896850586 aaaaa

#408120
r-12.94249248504639 aaaab

#408942
r21.69586181640625 aaaac

#409764
r0.009613037109375 aaaad

#410586
r0.5511264801025391 aaaaa

#411408
r-12.94201946258545 aaaab

#412230
r21.69686889648438 aaaac

#413052
r0.0077056884765625 aaaad

#413874
r0.5511364936828613 aaaaa

#414696
r-12.94154644012451 aaaab

#417162
r0.5511469841003418 aaaaa

#417984
r-12.94107341766357 aaaab

#418806
r21.69586181640625 aaaac

#419628
r0.009613037109375 aaaad

#420450
r0.5511569976806641 aaaaa

#421272
r-12.94060039520264 aaaab

#422094
r21.69451904296875 aaaac

#422916
r0.013580322265625 aaaad

#423738
r0.5511674880981445 aaaaa

#424560
r-12.9401273727417 aaaab

#425382
r21.69183349609375 aaaac

#426204
r0.0194549560546875 aaaad

#427026
r0.5511775016784668 aaaaa

#427848
r-12.93965435028076 aaaab

#428670
r21.68881225585938 aaaac

#429492
r0.027313232421875 aaaad

#430314
r0.5511879920959473 aaaaa

#431136
r-12.93918132781982 aaaab

#431958
r21.68478393554688 aaaac

#432780
r0.037078857421875 aaaad

#433602
r0.5511980056762695 aaaaa

#434424
r-12.93870830535889 aaaab

#435246
r21.68008422851562 aaaac

#436068
r0.0487518310546875 aaaad

#436890
r0.55120849609375 aaaaa

#437712
r-12.93823719024658 aaaab

#438534
r21.67471313476562 aaaac

#439356
r0.0623321533203125 aaaad

#440178
r0.5512185096740723 aaaaa

#441000
r-12.93776607513428 aaaab

#441822
r21.6683349609375 aaaac

#442644
r0.07781982421875 aaaad

#443466
r0.5512290000915527 aaaaa

#444288
r-12.93729496002197 aaaab

#445110
r21.66128540039062 aaaac

#445932
r0.0951385498046875 aaaad

#446754
r0.551239013671875 aaaaa

#447576
r-12.93682384490967 aaaab

#448398
r21.65322875976562 aaaac

#449220
r0.114288330078125 aaaad

#450042
r0.5512495040893555 aaaaa

#450864
r-12.93635272979736 aaaab

#451686
r21.64450073242188 aaaac

#452508
r0.1352691650390625 aaaad

#453330
r0.5512595176696777 aaaaa

#454152
r-12.93588161468506 aaaab

#454974
r21.63510131835938 aaaac

#455796
r0.157928466796875 aaaad

#456618
r0.55126953125 aaaaa

#457440
r-12.93541049957275 aaaab

#458262
r21.62503051757812 aaaac

#459084
r0.182342529296875 aaaad

#459906
r0.5512795448303223 aaaaa

#460728
r-12.93494033813477 aaaab

#461550
r21.61395263671875 aaaac

#462372
r0.2085113525390625 aaaad

#463194
r0.5512900352478027 aaaaa

#464016
r-12.93447113037109 aaaab

#464838
r21.60220336914062 aaaac

#465660
r0.2362823486328125 aaaad

#466482
r0.551300048828125 aaaaa

#467304
r-12.93400192260742 aaaab

#468126
r21.58944702148438 aaaac

#468948
r0.265655517578125 aaaad

#469770
r0.5513100624084473 aaaaa

#470592
r-12.93353271484375 aaaab

#471414
r21.57635498046875 aaaac

#472236
r0.2965545654296875 aaaad

#473058
r0.5513200759887695 aaaaa

#473880
r-12.93306350708008 aaaab

#474702
r21.562255859375 aaaac

#475524
r0.3289794921875 aaaad

#476346
r0.55133056640625 aaaaa

#477168
r-12.93259429931641 aaaab

#477990
r21.54714965820312 aaaac

#478812
r0.36285400390625 aaaad

#479634
r0.5513405799865723 aaaaa

#480456
r-12.93212604522705 aaaab

#481278
r21.53170776367188 aaaac

#482100
r0.3981781005859375 aaaad

#482922
r0.5513505935668945 aaaaa

#483744
r-12.93165874481201 aaaab

#484566
r21.5152587890625 aaaac

#485388
r0.4347991943359375 aaaad

#486210
r0.5513606071472168 aaaaa

#487032
r-12.93119144439697 aaaab

#487854
r21.49813842773438 aaaac

#488676
r0.4727935791015625 aaaad

#489498
r0.5513706207275391 aaaaa

#490320
r-12.93072414398193 aaaab

#491142
r21.48001098632812 aaaac

#491964
r0.5120086669921875 aaaad

#492786
r0.5513806343078613 aaaaa

#493608
r-12.93025684356689 aaaab

#494430
r21.4615478515625 aaaac

#495252
r0.5523681640625 aaaad

#496074
r0.5513906478881836 aaaaa

#496896
r-12.92979145050049 aaaab

#497718
r21.44207763671875 aaaac

#498540
r0.5938720703125 aaaad

#499362
r0.5514006614685059 aaaaa

#500184
r-12.92932605743408 aaaab

#501006
r21.42193603515625 aaaac

#501828
r0.636444091796875 aaaad

#502650
r0.5514106750488281 aaaaa

#503472
r-12.92886066436768 aaaab

#504294
r21.40078735351562 aaaac

#505116
r0.680084228515625 aaaad

#505938
r0.5514206886291504 aaaaa

#506760
r-12.92839527130127 aaaab

#507582
r21.37930297851562 aaaac

#508404
r0.724639892578125 aaaad

#509226
r0.5514307022094727 aaaaa

#510048
r-12.92793083190918 aaaab

#510870
r21.3568115234375 aaaac

#511692
r0.770111083984375 aaaad

#512514
r0.5514402389526367 aaaaa

#513336
r-12.92746734619141 aaaab

#514158
r21.33364868164062 aaaac

#514980
r0.81634521484375 aaaad

#515802
r0.551450252532959 aaaaa

#516624
r-12.92700386047363 aaaab

#517446
r21.309814453125 aaaac

#518268
r0.8634185791015625 aaaad

#519090
r0.5514602661132812 aaaaa

#519912
r-12.92654037475586 aaaab

#520734
r21.28497314453125 aaaac

#521556
r0.9111785888671875 aaaad

#522378
r0.5514702796936035 aaaaa

#523200
r-12.9260778427124 aaaab

#524022
r21.25979614257812 aaaac

#524844
r0.9595489501953125 aaaad

#525666
r0.5514798164367676 aaaaa

#526488
r-12.92561626434326 aaaab

#527310
r21.23361206054688 aaaac

#528132
r1.008529663085938 aaaad

#528954
r0.5514898300170898 aaaaa

#529776
r-12.92515468597412 aaaab

#530598
r21.20675659179688 aaaac

#531420
r1.05804443359375 aaaad

#532242
r0.5514993667602539 aaaaa

#533064
r-12.92469310760498 aaaab

#533886
r21.17922973632812 aaaac

#534708
r1.108016967773438 aaaad

#535530
r0.5515093803405762 aaaaa

#536352
r-12.92423343658447 aaaab

#537174
r21.15103149414062 aaaac

#537996
r1.158370971679688 aaaad

#538818
r0.5515189170837402 aaaaa

#539640
r-12.92377376556396 aaaab

#540462
r21.12216186523438 aaaac

#541284
r1.2091064453125 aaaad

#542106
r0.5515284538269043 aaaaa

#542928
r-12.92331409454346 aaaab

#543750
r21.09262084960938 aaaac

#544572
r1.26007080078125 aaaad

#545394
r0.5515384674072266 aaaaa

#546216
r-12.92285537719727 aaaab

#547038
r21.06240844726562 aaaac

#547860
r1.31134033203125 aaaad

#548682
r0.5515480041503906 aaaaa

#549504
r-12.92239761352539 aaaab

#550326
r21.03118896484375 aaaac

#551148
r1.362762451171875 aaaad

#551970
r0.5515575408935547 aaaaa

#552792
r-12.92193984985352 aaaab

#553614
r20.9996337890625 aaaac

#554436
r1.414260864257812 aaaad

#555258
r0.5515670776367188 aaaaa

#556080
r-12.92148208618164 aaaab

#556902
r20.96707153320312 aaaac

#557724
r1.465835571289062 aaaad

#558546
r0.5515766143798828 aaaaa

#559368
r-12.9210262298584 aaaab

#560190
r20.93417358398438 aaaac

#561012
r1.517410278320312 aaaad

#561834
r0.5515861511230469 aaaaa

#562656
r-12.92057037353516 aaaab

#563478
r20.90060424804688 aaaac

#564300
r1.568984985351562 aaaad

#565122
r0.5515956878662109 aaaaa

#565944
r-12.92011451721191 aaaab

#566766
r20.86602783203125 aaaac

#567588
r1.620407104492188 aaaad

#568410
r0.551605224609375 aaaaa

#569232
r-12.9196605682373 aaaab

#570054
r20.83111572265625 aaaac

#570876
r1.6717529296875 aaaad

#571698
r0.5516147613525391 aaaaa

#572520
r-12.9192066192627 aaaab

#573342
r20.79519653320312 aaaac

#574164
r1.722946166992188 aaaad

#574986
r0.5516242980957031 aaaaa

#575808
r-12.9187536239624 aaaab

#576630
r20.75894165039062 aaaac

#577452
r1.773834228515625 aaaad

#578274
r0.551633358001709 aaaaa

#579096
r-12.91830158233643 aaaab

#579918
r20.72201538085938 aaaac

#580740
r1.824493408203125 aaaad

#581562
r0.551642894744873 aaaaa

#582384
r-12.91784954071045 aaaab

#583206
r20.68441772460938 aaaac

#584028
r1.874771118164062 aaaad

#584850
r0.5516519546508789 aaaaa

#585672
r-12.91739845275879 aaaab

#586494
r20.64614868164062 aaaac

#587316
r1.92474365234375 aaaad

#588138
r0.551661491394043 aaaaa

#588960
r-12.91694831848145 aaaab

#589782
r20.60720825195312 aaaac

#590604
r1.974334716796875 aaaad

#591426
r0.5516705513000488 aaaaa

#592248
r-12.9164981842041 aaaab

#593070
r20.56793212890625 aaaac

#593892
r2.023468017578125 aaaad

#594714
r0.5516800880432129 aaaaa

#595536
r-12.91604900360107 aaaab

#596358
r20.52764892578125 aaaac

#597180
r2.0721435546875 aaaad

#598002
r0.5516891479492188 aaaaa

#598824
r-12.91560077667236 aaaab

#599646
r20.48703002929688 aaaac

#600468
r2.120361328125 aaaad

#601290
r0.5516982078552246 aaaaa

#602112
r-12.91515254974365 aaaab

#602934
r20.44573974609375 aaaac

#603756
r2.16796875 aaaad

#604578
r0.5517077445983887 aaaaa

#605400
r-12.91470623016357 aaaab

#606222
r20.40377807617188 aaaac

#607044
r2.215118408203125 aaaad

#607866
r0.5517168045043945 aaaaa

#608688
r-12.9142599105835 aaaab

#609510
r20.36114501953125 aaaac

#610332
r2.261581420898438 aaaad

#611154
r0.5517258644104004 aaaaa

#611976
r-12.91381454467773 aaaab

#612798
r20.31817626953125 aaaac

#613620
r2.307510375976562 aaaad

#614442
r0.5517349243164062 aaaaa

#615264
r-12.91337013244629 aaaab

#616086
r20.2745361328125 aaaac

#616908
r2.352752685546875 aaaad

#617730
r0.5517435073852539 aaaaa

#618552
r-12.91292572021484 aaaab

#619374
r20.230224609375 aaaac

#620196
r2.397384643554688 aaaad

#621018
r0.5517525672912598 aaaaa

#621840
r-12.91248321533203 aaaab

#622662
r20.18557739257812 aaaac

#623484
r2.441329956054688 aaaad

#624306
r0.5517616271972656 aaaaa

#625128
r-12.91204071044922 aaaab

#625950
r20.1402587890625 aaaac

#626772
r2.484588623046875 aaaad

#627594
r0.5517706871032715 aaaaa

#628416
r-12.91159915924072 aaaab

#629238
r20.09426879882812 aaaac

#630060
r2.52716064453125 aaaad

#630882
r0.5517792701721191 aaaaa

#631704
r-12.91115856170654 aaaab

#632526
r20.04794311523438 aaaac

#633348
r2.5689697265625 aaaad

#634170
r0.551788330078125 aaaaa

#634992
r-12.91071796417236 aaaab

#635814
r20.00094604492188 aaaac

#636636
r2.610015869140625 aaaad

#637458
r0.5517969131469727 aaaaa

#638280
r-12.91027927398682 aaaab

#639102
r19.95361328125 aaaac

#639924
r2.650375366210938 aaaad

#640746
r0.5518054962158203 aaaaa

#641568
r-12.90984058380127 aaaab

#642390
r19.90560913085938 aaaac

#643212
r2.689895629882812 aaaad

#644034
r0.5518145561218262 aaaaa

#644856
r-12.90940380096436 aaaab

#645678
r19.85726928710938 aaaac

#646500
r2.728729248046875 aaaad

#647322
r0.5518231391906738 aaaaa

#648144
r-12.90896701812744 aaaab

#648966
r19.80825805664062 aaaac

#649788
r2.7667236328125 aaaad

#650610
r0.5518317222595215 aaaaa

#651432
r-12.90853118896484 aaaab

#652254
r19.75857543945312 aaaac

#653076
r2.804031372070312 aaaad

