Proyecto_2/Router_Cache_Mem/estimador.vcd
$date
     Jul 27, 2020       23:22:42
$end

$version
 SystemC 2.3.3-Accellera --- Jul  8 2020 13:01:15
$end

$timescale
     1 ns
$end

$scope module SystemC $end
$var wire   16  aaaaa  adc_v [15:0]  $end
$var wire   16  aaaab  adc_i [15:0]  $end
$var wire    1  aaaac  start       $end
$var wire   32  aaaad  param_1 [31:0]  $end
$var wire   32  aaaae  param_2 [31:0]  $end
$var wire   32  aaaaf  volt [31:0]  $end
$var wire   32  aaaag  current [31:0]  $end
$upscope $end
$enddefinitions  $end

$comment
All initial values are dumped below at time 0 sec = 0 timescale units.
$end

$dumpvars
b0 aaaaa
b0 aaaab
1aaaac
b100011001100110011001 aaaad
b0 aaaae
b0 aaaaf
b0 aaaag
$end

#235
b11111110011000000000101111001000 aaaae

#1470
b1100001000110101 aaaaa
b1100001101011110 aaaab
0aaaac
b100011001100110100000 aaaad

#1885
b11111110011000000000110101111010 aaaae

#2300
b10000101100001000111000000 aaaaf

#2715
b11110100001101011000000 aaaag

#3130
b1100001010010011 aaaaa
b1100001100110000 aaaab
b100011001100110101000 aaaad

#3545
b11111110011000000000111100101100 aaaae

#3960
b10000101110001010001000000 aaaaf

#4375
b11110011111111000000000 aaaag

#4790
b1100001011110001 aaaaa
b1100001100000010 aaaab
b100011001100110101111 aaaad

#5205
b11111110011000000001000011100000 aaaae

#5620
b10000110000001011011000000 aaaaf

#6032
b11110011110000101000000 aaaag

#6442
b1100001101001111 aaaaa
b1100001011010011 aaaab
b100011001100110110110 aaaad

#6854
b11111110011000000001001010010100 aaaae

#7264
b10000110010001100101000000 aaaaf

#7676
b11110011100001111100000 aaaag

#8086
b1100001110101100 aaaaa
b1100001010100011 aaaab
b100011001100110111110 aaaad

#8498
b11111110011000000001010001001000 aaaae

#8908
b10000110100001100100000000 aaaaf

#9320
b11110011010010111100000 aaaag

#9730
b1100010000001010 aaaaa
b1100001001110010 aaaab
b100011001100111000101 aaaad

#10142
b11111110011000000001010111111100 aaaae

#10552
b10000110110001101110000000 aaaaf

#10964
b11110011000011101000000 aaaag

#11374
b1100010001101000 aaaaa
b1100001001000000 aaaab
b100011001100111001100 aaaad

#11786
b11111110011000000001011110110010 aaaae

#12196
b10000111000001111000000000 aaaaf

#12608
b11110010110100000000000 aaaag

#13018
b1100010011000101 aaaaa
b1100001000001101 aaaab
b100011001100111010100 aaaad

#13430
b11111110011000000001100101101000 aaaae

#13840
b10000111010001110111000000 aaaaf

#14252
b11110010100100000100000 aaaag

#14662
b1100010100100011 aaaaa
b1100000111011001 aaaab
b100011001100111011011 aaaad

#15074
b11111110011000000001101100011110 aaaae

#15484
b10000111100010000001000000 aaaaf

#15896
b11110010010011110100000 aaaag

#16306
b1100010110000000 aaaaa
b1100000110100100 aaaab
b100011001100111100011 aaaad

#16718
b11111110011000000001110011010100 aaaae

#17128
b10000111110010000000000000 aaaaf

#17540
b11110010000011010000000 aaaag

#17950
b1100010111011110 aaaaa
b1100000101101110 aaaab
b100011001100111101010 aaaad

#18362
b11111110011000000001111010001010 aaaae

#18772
b10001000000010001010000000 aaaaf

#19184
b11110001110010011000000 aaaag

#19594
b1100011000111100 aaaaa
b1100000100110111 aaaab
b100011001100111110010 aaaad

#20006
b11111110011000000010000001000010 aaaae

#20416
b10001000010010010100000000 aaaaf

#20828
b11110001100001001100000 aaaag

#21238
b1100011010011001 aaaaa
b1100000011111111 aaaab
b100011001100111111001 aaaad

#21650
b11111110011000000010000111111010 aaaae

#22060
b10001000100010010011000000 aaaaf

#22472
b11110001001111101100000 aaaag

#22882
b1100011011110110 aaaaa
b1100000011000110 aaaab
b100011001101000000001 aaaad

#23294
b11111110011000000010001110110010 aaaae

#23704
b10001000110010010010000000 aaaaf

#24116
b11110000111101111000000 aaaag

#24526
b1100011101010100 aaaaa
b1100000010001011 aaaab
b100011001101000001000 aaaad

#24938
b11111110011000000010010101101010 aaaae

#25348
b10001001000010011100000000 aaaaf

#25760
b11110000101011011100000 aaaag

#26170
b1100011110110001 aaaaa
b1100000001010000 aaaab
b100011001101000010000 aaaad

#26582
b11111110011000000010011100100100 aaaae

#26992
b10001001010010011011000000 aaaaf

#27404
b11110000011001000000000 aaaag

#27814
b1100100000001110 aaaaa
b1100000000010011 aaaab
b100011001101000010111 aaaad

#28226
b11111110011000000010100011011110 aaaae

#28636
b10001001100010011010000000 aaaaf

#29048
b11110000000101111100000 aaaag

#29458
b1100100001101100 aaaaa
b1011111111010101 aaaab
b100011001101000011111 aaaad

#29870
b11111110011000000010101010011000 aaaae

#30280
b10001001110010100100000000 aaaaf

#30692
b11101111110010100100000 aaaag

#31102
b1100100011001001 aaaaa
b1011111110010111 aaaab
b100011001101000100111 aaaad

#31514
b11111110011000000010110001010010 aaaae

#31924
b10001010000010100011000000 aaaaf

#32336
b11101111011111001100000 aaaag

#32746
b1100100100100110 aaaaa
b1011111101010110 aaaab
b100011001101000101110 aaaad

#33158
b11111110011000000010111000001100 aaaae

#33568
b10001010010010100010000000 aaaaf

#33980
b11101111001010111000000 aaaag

#34390
b1100100110000011 aaaaa
b1011111100010101 aaaab
b100011001101000110110 aaaad

#34802
b11111110011000000010111111001000 aaaae

#35212
b10001010100010100001000000 aaaaf

#35624
b11101110110110100100000 aaaag

#36034
b1100100111100000 aaaaa
b1011111011010011 aaaab
b100011001101000111110 aaaad

#36446
b11111110011000000011000110000100 aaaae

#36856
b10001010110010100000000000 aaaaf

#37268
b11101110100001111100000 aaaag

#37678
b1100101000111101 aaaaa
b1011111010001111 aaaab
b100011001101001000101 aaaad

#38090
b11111110011000000011001101000000 aaaae

#38500
b10001011000010011111000000 aaaaf

#38912
b11101110001100101100000 aaaag

#39322
b1100101010011001 aaaaa
b1011111001001010 aaaab
b100011001101001001101 aaaad

#39734
b11111110011000000011010011111100 aaaae

#40144
b10001011010010010011000000 aaaaf

#40556
b11101101110111001000000 aaaag

#40966
b1100101011110110 aaaaa
b1011111000000011 aaaab
b100011001101001010101 aaaad

#41378
b11111110011000000011011010111000 aaaae

#41788
b10001011100010010010000000 aaaaf

#42200
b11101101100000111100000 aaaag

#42610
b1100101101010011 aaaaa
b1011110110111100 aaaab
b100011001101001011101 aaaad

#43022
b11111110011000000011100001110110 aaaae

#43432
b10001011110010010001000000 aaaaf

#43844
b11101101001010110000000 aaaag

#44254
b1100101110101111 aaaaa
b1011110101110011 aaaab
b100011001101001100100 aaaad

#44666
b11111110011000000011101000110100 aaaae

#45076
b10001100000010000101000000 aaaaf

#45488
b11101100110011111100000 aaaag

#45898
b1100110000001100 aaaaa
b1011110100101000 aaaab
b100011001101001101100 aaaad

#46310
b11111110011000000011101111110010 aaaae

#46720
b10001100010010000100000000 aaaaf

#47132
b11101100011100100000000 aaaag

#47542
b1100110001101000 aaaaa
b1011110011011100 aaaab
b100011001101001110100 aaaad

#47954
b11111110011000000011110110110000 aaaae

#48364
b10001100100001111000000000 aaaaf

#48776
b11101100000100110000000 aaaag

#49186
b1100110011000100 aaaaa
b1011110010001111 aaaab
b100011001101001111100 aaaad

#49598
b11111110011000000011111101110000 aaaae

#50008
b10001100110001101100000000 aaaaf

#50420
b11101011101100101100000 aaaag

#50830
b1100110100100000 aaaaa
b1011110001000001 aaaab
b100011001101010000100 aaaad

#51242
b11111110011000000100000100110000 aaaae

#51652
b10001101000001100000000000 aaaaf

#52064
b11101011010100010100000 aaaag

#52474
b1100110101111100 aaaaa
b1011101111110001 aaaab
b100011001101010001100 aaaad

#52886
b11111110011000000100001011110000 aaaae

#53296
b10001101010001010100000000 aaaaf

#53708
b11101010111011010100000 aaaag

#54118
b1100110111011000 aaaaa
b1011101110011111 aaaab
b100011001101010010100 aaaad

#54530
b11111110011000000100010010110000 aaaae

#54940
b10001101100001001000000000 aaaaf

#55352
b11101010100001101100000 aaaag

#55762
b1100111000110100 aaaaa
b1011101101001100 aaaab
b100011001101010011100 aaaad

#56174
b11111110011000000100011001110000 aaaae

#56584
b10001101110000111100000000 aaaaf

#56996
b11101010000111110000000 aaaag

#57406
b1100111010010000 aaaaa
b1011101011111000 aaaab
b100011001101010100100 aaaad

#57818
b11111110011000000100100000110010 aaaae

#58228
b10001110000000110000000000 aaaaf

#58640
b11101001101101100000000 aaaag

#59050
b1100111011101011 aaaaa
b1011101010100010 aaaab
b100011001101010101100 aaaad

#59462
b11111110011000000100100111110100 aaaae

#59872
b10001110010000011001000000 aaaaf

#60284
b11101001010010101000000 aaaag

#60694
b1100111101000111 aaaaa
b1011101001001010 aaaab
b100011001101010110100 aaaad

#61106
b11111110011000000100101110110110 aaaae

#61516
b10001110100000001101000000 aaaaf

#61928
b11101000110111001000000 aaaag

#62338
b1100111110100010 aaaaa
b1011100111110001 aaaab
b100011001101010111100 aaaad

#62750
b11111110011000000100110101111000 aaaae

#63160
b10001110101111110110000000 aaaaf

#63572
b11101000011011010100000 aaaag

#63982
b1100111111111101 aaaaa
b1011100110010111 aaaab
b100011001101011000100 aaaad

#64394
b11111110011000000100111100111010 aaaae

#64804
b10001110111111011111000000 aaaaf

#65216
b11100111111111001100000 aaaag

#65626
b1101000001011000 aaaaa
b1011100100111010 aaaab
b100011001101011001100 aaaad

#66038
b11111110011000000101000011111110 aaaae

#66448
b10001111001111001000000000 aaaaf

#66860
b11100111100010001000000 aaaag

#67270
b1101000010110011 aaaaa
b1011100011011101 aaaab
b100011001101011010100 aaaad

#67682
b11111110011000000101001011000010 aaaae

#68092
b10001111011110110001000000 aaaaf

#68504
b11100111000101000100000 aaaag

#68914
b1101000100001110 aaaaa
b1011100001111101 aaaab
b100011001101011011100 aaaad

#69326
b11111110011000000101010010000110 aaaae

#69736
b10001111101110011010000000 aaaaf

#70148
b11100110100111000100000 aaaag

#70558
b1101000101101000 aaaaa
b1011100000011100 aaaab
b100011001101011100100 aaaad

#70970
b11111110011000000101011001001010 aaaae

#71380
b10001111111101111000000000 aaaaf

#71792
b11100110001000110000000 aaaag

#72202
b1101000111000010 aaaaa
b1011011110111001 aaaab
b100011001101011101100 aaaad

#72614
b11111110011000000101100000010000 aaaae

#73024
b10010000001101010110000000 aaaaf

#73436
b11100101101001110100000 aaaag

#73846
b1101001000011101 aaaaa
b1011011101010100 aaaab
b100011001101011110100 aaaad

#74258
b11111110011000000101100111010110 aaaae

#74668
b10010000011100111111000000 aaaaf

#75080
b11100101001010010000000 aaaag

#75490
b1101001001110111 aaaaa
b1011011011101110 aaaab
b100011001101011111101 aaaad

#75902
b11111110011000000101101110011100 aaaae

#76312
b10010000101100011101000000 aaaaf

#76724
b11100100101010011000000 aaaag

#77134
b1101001011010001 aaaaa
b1011011010000110 aaaab
b100011001101100000101 aaaad

#77546
b11111110011000000101110101100010 aaaae

#77956
b10010000111011111011000000 aaaaf

#78368
b11100100001001111000000 aaaag

#78778
b1101001100101010 aaaaa
b1011011000011100 aaaab
b100011001101100001101 aaaad

#79190
b11111110011000000101111100101000 aaaae

#79600
b10010001001011001110000000 aaaaf

#80012
b11100011101000110000000 aaaag

#80422
b1101001110000100 aaaaa
b1011010110110000 aaaab
b100011001101100010101 aaaad

#80834
b11111110011000000110000011110000 aaaae

#81244
b10010001011010101100000000 aaaaf

#81656
b11100011000111000000000 aaaag

#82066
b1101001111011101 aaaaa
b1011010101000011 aaaab
b100011001101100011110 aaaad

#82478
b11111110011000000110001010111000 aaaae

#82888
b10010001101001111111000000 aaaaf

#83300
b11100010100100111100000 aaaag

#83710
b1101010000110111 aaaaa
b1011010011010011 aaaab
b100011001101100100110 aaaad

#84122
b11111110011000000110010010000000 aaaae

#84532
b10010001111001011101000000 aaaaf

#84944
b11100010000001111100000 aaaag

#85354
b1101010010010000 aaaaa
b1011010001100010 aaaab
b100011001101100101110 aaaad

#85766
b11111110011000000110011001001000 aaaae

#86176
b10010010001000110000000000 aaaaf

#86588
b11100001011110101000000 aaaag

#86998
b1101010011101001 aaaaa
b1011001111101111 aaaab
b100011001101100110111 aaaad

#87410
b11111110011000000110100000010000 aaaae

#87820
b10010010011000000011000000 aaaaf

#88232
b11100000111010101100000 aaaag

#88642
b1101010101000001 aaaaa
b1011001101111010 aaaab
b100011001101100111111 aaaad

#89054
b11111110011000000110100111011010 aaaae

#89464
b10010010100111001011000000 aaaaf

#89876
b11100000010110001000000 aaaag

#90286
b1101010110011010 aaaaa
b1011001100000011 aaaab
b100011001101101001000 aaaad

#90698
b11111110011000000110101110100100 aaaae

#91108
b10010010110110011110000000 aaaaf

#91520
b11011111110000111100000 aaaag

#91930
b1101010111110010 aaaaa
b1011001010001010 aaaab
b100011001101101010000 aaaad

#92342
b11111110011000000110110101101110 aaaae

#92752
b10010011000101100110000000 aaaaf

#93164
b11011111001011001000000 aaaag

#93574
b1101011001001010 aaaaa
b1011001000001111 aaaab
b100011001101101011000 aaaad

#93986
b11111110011000000110111100111000 aaaae

#94396
b10010011010100101110000000 aaaaf

#94808
b11011110100100101100000 aaaag

#95218
b1101011010100010 aaaaa
b1011000110010010 aaaab
b100011001101101100001 aaaad

#95630
b11111110011000000111000100000010 aaaae

#96040
b10010011100011110110000000 aaaaf

#96452
b11011101111101101000000 aaaag

#96862
b1101011011111010 aaaaa
b1011000100010011 aaaab
b100011001101101101001 aaaad

#97274
b11111110011000000111001011001110 aaaae

#97684
b10010011110010111110000000 aaaaf

#98096
b11011101010101111100000 aaaag

#98506
b1101011101010001 aaaaa
b1011000010010010 aaaab
b100011001101101110010 aaaad

#98918
b11111110011000000111010010011010 aaaae

#99328
b10010100000001111011000000 aaaaf

#99740
b11011100101101101000000 aaaag

#100150
b1101011110101000 aaaaa
b1011000000001111 aaaab
b100011001101101111010 aaaad

#100562
b11111110011000000111011001100110 aaaae

#100972
b10010100010000111000000000 aaaaf

#101384
b11011100000100101100000 aaaag

#101794
b1101011111111111 aaaaa
b1010111110001010 aaaab
b100011001101110000011 aaaad

#102206
b11111110011000000111100000110010 aaaae

#102616
b10010100011111110101000000 aaaaf

#103028
b11011011011011001000000 aaaag

#103438
b1101100001010110 aaaaa
b1010111100000011 aaaab
b100011001101110001100 aaaad

#103850
b11111110011000000111100111111110 aaaae

#104260
b10010100101110110010000000 aaaaf

#104672
b11011010110000111100000 aaaag

#105082
b1101100010101101 aaaaa
b1010111001111001 aaaab
b100011001101110010100 aaaad

#105494
b11111110011000000111101111001100 aaaae

#105904
b10010100111101101111000000 aaaaf

#106316
b11011010000101110100000 aaaag

#106726
b1101100100000011 aaaaa
b1010110111101110 aaaab
b100011001101110011101 aaaad

#107138
b11111110011000000111110110011010 aaaae

#107548
b10010101001100100001000000 aaaaf

#107960
b11011001011010011000000 aaaag

#108370
b1101100101011001 aaaaa
b1010110101100000 aaaab
b100011001101110100101 aaaad

#108782
b11111110011000000111111101101000 aaaae

#109192
b10010101011011010011000000 aaaaf

#109604
b11011000101110000000000 aaaag

#110014
b1101100110101111 aaaaa
b1010110011010000 aaaab
b100011001101110101110 aaaad

#110426
b11111110011000001000000100110110 aaaae

#110836
b10010101101010000101000000 aaaaf

#111248
b11011000000001000000000 aaaag

#111658
b1101101000000101 aaaaa
b1010110000111110 aaaab
b100011001101110110111 aaaad

#112070
b11111110011000001000001100000100 aaaae

#112480
b10010101111000110111000000 aaaaf

#112892
b11010111010011011000000 aaaag

#113302
b1101101001011010 aaaaa
b1010101110101010 aaaab
b100011001101110111111 aaaad

#113714
b11111110011000001000010011010100 aaaae

#114124
b10010110000111011110000000 aaaaf

#114536
b11010110100101001000000 aaaag

#114946
b1101101010101111 aaaaa
b1010101100010011 aaaab
b100011001101111001000 aaaad

#115358
b11111110011000001000011010100100 aaaae

#115768
b10010110010110000101000000 aaaaf

#116180
b11010101110101111100000 aaaag

#116590
b1101101100000100 aaaaa
b1010101001111010 aaaab
b100011001101111010001 aaaad

#117002
b11111110011000001000100001110100 aaaae

#117412
b10010110100100101100000000 aaaaf

#117824
b11010101000110001000000 aaaag

#118234
b1101101101011001 aaaaa
b1010100111011111 aaaab
b100011001101111011010 aaaad

#118646
b11111110011000001000101001000100 aaaae

#119056
b10010110110011010011000000 aaaaf

#119468
b11010100010101101100000 aaaag

#119878
b1101101110101101 aaaaa
b1010100101000010 aaaab
b100011001101111100010 aaaad

#120290
b11111110011000001000110000010100 aaaae

#120700
b10010111000001101111000000 aaaaf

#121112
b11010011100100101000000 aaaag

#121522
b1101110000000001 aaaaa
b1010100010100010 aaaab
b100011001101111101011 aaaad

#121934
b11111110011000001000110111100100 aaaae

#122344
b10010111010000001011000000 aaaaf

#122756
b11010010110010101000000 aaaag

#123166
b1101110001010101 aaaaa
b1010100000000000 aaaab
b100011001101111110100 aaaad

#123578
b11111110011000001000111110110110 aaaae

#123988
b10010111011110100111000000 aaaaf

#124400
b11010010000000000000000 aaaag

#124810
b1101110010101001 aaaaa
b1010011101011011 aaaab
b100011001101111111101 aaaad

#125222
b11111110011000001001000110001000 aaaae

#125632
b10010111101101000011000000 aaaaf

#126044
b11010001001100011100000 aaaag

#126454
b1101110011111100 aaaaa
b1010011010110101 aaaab
b100011001110000000110 aaaad

#126866
b11111110011000001001001101011010 aaaae

#127276
b10010111111011010100000000 aaaaf

#127688
b11010000011000100100000 aaaag

#128098
b1101110101001111 aaaaa
b1010011000001011 aaaab
b100011001110000001111 aaaad

#128510
b11111110011000001001010100101100 aaaae

#128920
b10011000001001100101000000 aaaaf

#129332
b11001111100011011100000 aaaag

#129742
b1101110110100010 aaaaa
b1010010101100000 aaaab
b100011001110000010111 aaaad

#130154
b11111110011000001001011011111110 aaaae

#130564
b10011000010111110110000000 aaaaf

#130976
b11001110101110000000000 aaaag

#131386
b1101110111110101 aaaaa
b1010010010110010 aaaab
b100011001110000100000 aaaad

#131798
b11111110011000001001100011010010 aaaae

#132208
b10011000100110000111000000 aaaaf

#132620
b11001101110111101000000 aaaag

#133030
b1101111001000111 aaaaa
b1010010000000001 aaaab
b100011001110000101001 aaaad

#133442
b11111110011000001001101010100110 aaaae

#133852
b10011000110100001101000000 aaaaf

#134264
b11001101000000010100000 aaaag

#134674
b1101111010011001 aaaaa
b1010001101001110 aaaab
b100011001110000110010 aaaad

#135086
b11111110011000001001110001111010 aaaae

#135496
b10011001000010010011000000 aaaaf

#135908
b11001100001000011000000 aaaag

#136318
b1101111011101011 aaaaa
b1010001010011001 aaaab
b100011001110000111011 aaaad

#136730
b11111110011000001001111001001110 aaaae

#137140
b10011001010000011001000000 aaaaf

#137552
b11001011001111110100000 aaaag

#137962
b1101111100111100 aaaaa
b1010000111100001 aaaab
b100011001110001000100 aaaad

#138374
b11111110011000001010000000100010 aaaae

#138784
b10011001011110010100000000 aaaaf

#139196
b11001010010110010100000 aaaag

#139606
b1101111110001101 aaaaa
b1010000100100111 aaaab
b100011001110001001101 aaaad

#140018
b11111110011000001010000111111000 aaaae

#140428
b10011001101100001111000000 aaaaf

#140840
b11001001011100001100000 aaaag

#141250
b1101111111011110 aaaaa
b1010000001101010 aaaab
b100011001110001010110 aaaad

#141662
b11111110011000001010001111001110 aaaae

#142072
b10011001111010001010000000 aaaaf

#142484
b11001000100001001000000 aaaag

#142894
b1110000000101111 aaaaa
b1001111110101011 aaaab
b100011001110001011111 aaaad

#143306
b11111110011000001010010110100100 aaaae

#143716
b10011010001000000101000000 aaaaf

#144128
b11000111100101011100000 aaaag

#144538
b1110000001111111 aaaaa
b1001111011101001 aaaab
b100011001110001101000 aaaad

#144950
b11111110011000001010011101111010 aaaae

#145360
b10011010010101110101000000 aaaaf

#145772
b11000110101000110100000 aaaag

#146182
b1110000011001111 aaaaa
b1001111000100101 aaaab
b100011001110001110001 aaaad

#146594
b11111110011000001010100101010000 aaaae

#147004
b10011010100011100101000000 aaaaf

#147416
b11000101101011100100000 aaaag

#147826
b1110000100011110 aaaaa
b1001110101011110 aaaab
b100011001110001111011 aaaad

#148238
b11111110011000001010101100100110 aaaae

#148648
b10011010110001001010000000 aaaaf

#149060
b11000100101101011000000 aaaag

#149470
b1110000101101110 aaaaa
b1001110010010100 aaaab
b100011001110010000100 aaaad

#149882
b11111110011000001010110011111110 aaaae

#150292
b10011010111110111010000000 aaaaf

#150704
b11000011101110010000000 aaaag

#151114
b1110000110111101 aaaaa
b1001101111001000 aaaab
b100011001110010001101 aaaad

#151526
b11111110011000001010111011010110 aaaae

#151936
b10011011001100011111000000 aaaaf

#152348
b11000010101110100000000 aaaag

#152758
b1110001000001011 aaaaa
b1001101011111010 aaaab
b100011001110010010110 aaaad

#153170
b11111110011000001011000010101110 aaaae

#153580
b10011011011001111001000000 aaaaf

#153992
b11000001101110001000000 aaaag

#154402
b1110001001011010 aaaaa
b1001101000101000 aaaab
b100011001110010011111 aaaad

#154814
b11111110011000001011001010000110 aaaae

#155224
b10011011100111011110000000 aaaaf

#155636
b11000000101100100000000 aaaag

#156046
b1110001010101000 aaaaa
b1001100101010101 aaaab
b100011001110010101000 aaaad

#156458
b11111110011000001011010001011110 aaaae

#156868
b10011011110100111000000000 aaaaf

#157280
b10111111101010100100000 aaaag

#157690
b1110001011110101 aaaaa
b1001100001111110 aaaab
b100011001110010110010 aaaad

#158102
b11111110011000001011011000110110 aaaae

#158512
b10011100000010000111000000 aaaaf

#158924
b10111110100111011000000 aaaag

#159334
b1110001101000011 aaaaa
b1001011110100101 aaaab
b100011001110010111011 aaaad

#159746
b11111110011000001011100000010000 aaaae

#160156
b10011100001111100001000000 aaaaf

#160568
b10111101100011100100000 aaaag

#160978
b1110001110010000 aaaaa
b1001011011001010 aaaab
b100011001110011000100 aaaad

#161390
b11111110011000001011100111101010 aaaae

#161800
b10011100011100110000000000 aaaaf

#162212
b10111100011111001000000 aaaag

#162622
b1110001111011100 aaaaa
b1001010111101100 aaaab
b100011001110011001101 aaaad

#163034
b11111110011000001011101111000100 aaaae

#163444
b10011100101001110100000000 aaaaf

#163856
b10111011011001110000000 aaaag

#164266
b1110010000101001 aaaaa
b1001010100001011 aaaab
b100011001110011010111 aaaad

#164678
b11111110011000001011110110011110 aaaae

#165088
b10011100110111000011000000 aaaaf

#165500
b10111010010011011100000 aaaag

#165910
b1110010001110101 aaaaa
b1001010000101000 aaaab
b100011001110011100000 aaaad

#166322
b11111110011000001011111101111000 aaaae

#166732
b10011101000100000111000000 aaaaf

#167144
b10111001001100100000000 aaaag

#167554
b1110010011000000 aaaaa
b1001001101000010 aaaab
b100011001110011101001 aaaad

#167966
b11111110011000001100000101010010 aaaae

#168376
b10011101010001000000000000 aaaaf

#168788
b10111000000100101000000 aaaag

#169198
b1110010100001011 aaaaa
b1001001001011001 aaaab
b100011001110011110011 aaaad

#169610
b11111110011000001100001100101110 aaaae

#170020
b10011101011101111001000000 aaaaf

#170432
b10110110111011110100000 aaaag

#170842
b1110010101010110 aaaaa
b1001000101101110 aaaab
b100011001110011111100 aaaad

#171254
b11111110011000001100010100001010 aaaae

#171664
b10011101101010110010000000 aaaaf

#172076
b10110101110010011000000 aaaag

#172486
b1110010110100001 aaaaa
b1001000010000001 aaaab
b100011001110100000101 aaaad

#172898
b11111110011000001100011011100110 aaaae

#173308
b10011101110111101011000000 aaaaf

#173720
b10110100101000010100000 aaaag

#174130
b1110010111101011 aaaaa
b1000111110010001 aaaab
b100011001110100001111 aaaad

#174542
b11111110011000001100100011000010 aaaae

#174952
b10011110000100011001000000 aaaaf

#175364
b10110011011101010100000 aaaag

#175774
b1110011000110101 aaaaa
b1000111010011110 aaaab
b100011001110100011000 aaaad

#176186
b11111110011000001100101010011110 aaaae

#176596
b10011110010001000111000000 aaaaf

#177008
b10110010010001011000000 aaaag

#177418
b1110011001111111 aaaaa
b1000110110101000 aaaab
b100011001110100100010 aaaad

#177830
b11111110011000001100110001111010 aaaae

#178240
b10011110011101110101000000 aaaaf

#178652
b10110001000100100000000 aaaag

#179062
b1110011011001000 aaaaa
b1000110010110000 aaaab
b100011001110100101011 aaaad

#179474
b11111110011000001100111001011000 aaaae

#179884
b10011110101010011000000000 aaaaf

#180296
b10101111110111000000000 aaaag

#180706
b1110011100010001 aaaaa
b1000101110110110 aaaab
b100011001110100110101 aaaad

#181118
b11111110011000001101000000110110 aaaae

#181528
b10011110110110111011000000 aaaaf

#181940
b10101110101000111000000 aaaag

#182350
b1110011101011001 aaaaa
b1000101010111001 aaaab
b100011001110100111110 aaaad

#182762
b11111110011000001101001000010100 aaaae

#183172
b10011111000011010011000000 aaaaf

#183584
b10101101011001110100000 aaaag

#183994
b1110011110100001 aaaaa
b1000100110111001 aaaab
b100011001110101001000 aaaad

#184406
b11111110011000001101001111110010 aaaae

#184816
b10011111001111101011000000 aaaaf

#185228
b10101100001001110100000 aaaag

#185638
b1110011111101001 aaaaa
b1000100010110111 aaaab
b100011001110101010001 aaaad

#186050
b11111110011000001101010111010000 aaaae

#186460
b10011111011100000011000000 aaaaf

#186872
b10101010111001001100000 aaaag

#187282
b1110100000110000 aaaaa
b1000011110110011 aaaab
b100011001110101011011 aaaad

#187694
b11111110011000001101011110101110 aaaae

#188104
b10011111101000010000000000 aaaaf

#188516
b10101001100111111100000 aaaag

#188926
b1110100001110111 aaaaa
b1000011010101100 aaaab
b100011001110101100100 aaaad

#189338
b11111110011000001101100110001110 aaaae

#189748
b10011111110100011101000000 aaaaf

#190160
b10101000010101110000000 aaaag

#190570
b1110100010111101 aaaaa
b1000010110100010 aaaab
b100011001110101101110 aaaad

#190982
b11111110011000001101101101101110 aaaae

#191392
b10100000000000011111000000 aaaaf

#191804
b10100111000010101000000 aaaag

#192214
b1110100100000011 aaaaa
b1000010010010110 aaaab
b100011001110101111000 aaaad

#192626
b11111110011000001101110101001110 aaaae

#193036
b10100000001100100001000000 aaaaf

#193448
b10100101101110111000000 aaaag

#193858
b1110100101001001 aaaaa
b1000001110001000 aaaab
b100011001110110000001 aaaad

#194270
b11111110011000001101111100101110 aaaae

#194680
b10100000011000100011000000 aaaaf

#195092
b10100100011010100000000 aaaag

#195502
b1110100110001110 aaaaa
b1000001001110111 aaaab
b100011001110110001011 aaaad

#195914
b11111110011000001110000100001110 aaaae

#196324
b10100000100100011010000000 aaaaf

#196736
b10100011000101001100000 aaaag

#197146
b1110100111010011 aaaaa
b1000000101100100 aaaab
b100011001110110010100 aaaad

#197558
b11111110011000001110001011101110 aaaae

#197968
b10100000110000010001000000 aaaaf

#198380
b10100001101111010000000 aaaag

#198790
b1110101000011000 aaaaa
b1000000001001110 aaaab
b100011001110110011110 aaaad

#199202
b11111110011000001110010011001110 aaaae

#199612
b10100000111100001000000000 aaaaf

#200024
b10100000011000011000000 aaaag

#200434
b1110101001011100 aaaaa
b111111100110110 aaaab
b100011001110110101000 aaaad

#200846
b11111110011000001110011010110000 aaaae

#201256
b10100001000111110100000000 aaaaf

#201668
b10011111000000111000000 aaaag

#202078
b1110101010100000 aaaaa
b111111000011100 aaaab
b100011001110110110010 aaaad

#202490
b11111110011000001110100010010010 aaaae

#202900
b10100001010011100000000000 aaaaf

#203312
b10011101101000110000000 aaaag

#203722
b1110101011100011 aaaaa
b111110011111111 aaaab
b100011001110110111011 aaaad

#204134
b11111110011000001110101001110100 aaaae

#204544
b10100001011111000001000000 aaaaf

#204956
b10011100001111101100000 aaaag

#205366
b1110101100100110 aaaaa
b111101111100000 aaaab
b100011001110111000101 aaaad

#205778
b11111110011000001110110001010110 aaaae

#206188
b10100001101010100010000000 aaaaf

#206600
b10011010110110000000000 aaaag

#207010
b1110101101101000 aaaaa
b111101010111111 aaaab
b100011001110111001111 aaaad

#207422
b11111110011000001110111000111000 aaaae

#207832
b10100001110101111000000000 aaaaf

#208244
b10011001011011101100000 aaaag

#208654
b1110101110101010 aaaaa
b111100110011100 aaaab
b100011001110111011001 aaaad

#209066
b11111110011000001111000000011010 aaaae

#209476
b10100010000001001110000000 aaaaf

#209888
b10011000000000110000000 aaaag

#210298
b1110101111101100 aaaaa
b111100001110110 aaaab
b100011001110111100010 aaaad

#210710
b11111110011000001111000111111100 aaaae

#211120
b10100010001100100100000000 aaaaf

#211532
b10010110100100111000000 aaaag

#211942
b1110110000101101 aaaaa
b111011101001111 aaaab
b100011001110111101100 aaaad

#212354
b11111110011000001111001111100000 aaaae

#212764
b10100010010111101111000000 aaaaf

#213176
b10010101001000101100000 aaaag

#213586
b1110110001101110 aaaaa
b111011000100101 aaaab
b100011001110111110110 aaaad

#213998
b11111110011000001111010111000100 aaaae

#214408
b10100010100010111010000000 aaaaf

#214820
b10010011101011100100000 aaaag

#215230
b1110110010101110 aaaaa
b111010011111001 aaaab
b100011001111000000000 aaaad

#215642
b11111110011000001111011110101000 aaaae

#216052
b10100010101101111010000000 aaaaf

#216464
b10010010001101110100000 aaaag

#216874
b1110110011101110 aaaaa
b111001111001011 aaaab
b100011001111000001010 aaaad

#217286
b11111110011000001111100110001100 aaaae

#217696
b10100010111000111010000000 aaaaf

#218108
b10010000101111011100000 aaaag

#218518
b1110110100101110 aaaaa
b111001010011011 aaaab
b100011001111000010100 aaaad

#218930
b11111110011000001111101101110000 aaaae

#219340
b10100011000011111010000000 aaaaf

#219752
b10001111010000011100000 aaaag

#220162
b1110110101101101 aaaaa
b111000101101010 aaaab
b100011001111000011101 aaaad

#220574
b11111110011000001111110101010100 aaaae

#220984
b10100011001110101111000000 aaaaf

#221396
b10001101110001001000000 aaaag

#221806
b1110110110101100 aaaaa
b111000000110110 aaaab
b100011001111000100111 aaaad

#222218
b11111110011000001111111100111000 aaaae

#222628
b10100011011001100100000000 aaaaf

#223040
b10001100010000111000000 aaaag

#223450
b1110110111101010 aaaaa
b110111100000000 aaaab
b100011001111000110001 aaaad

#223862
b11111110011000010000000100011100 aaaae

#224272
b10100011100100001110000000 aaaaf

#224684
b10001010110000000000000 aaaag

